Pipelined-KGP-RISC-Processor/test.vcd
$date
	Thu Dec 21 19:50:25 2023
$end
$version
	Icarus Verilog
$end
$timescale
	1s
$end
$scope module mips_tb $end
$var reg 1 ! clk $end
$var reg 1 " clkbar $end
$var reg 1 # reset $end
$scope module dut $end
$var wire 1 $ branch $end
$var wire 1 ! clk $end
$var wire 1 " clkbar $end
$var wire 1 % flush $end
$var wire 1 & if_flush $end
$var wire 1 # reset $end
$var wire 1 ' zero $end
$var wire 1 ( writedmem $end
$var wire 32 ) writedatadmem [31:0] $end
$var wire 32 * wb_writedata [31:0] $end
$var wire 1 + stall $end
$var wire 32 , result [31:0] $end
$var wire 1 - regwrite $end
$var wire 1 . regdest $end
$var wire 32 / readdmemData [31:0] $end
$var wire 1 0 readdmem $end
$var wire 32 1 rData2out [31:0] $end
$var wire 32 2 rData2 [31:0] $end
$var wire 32 3 rData1out [31:0] $end
$var wire 32 4 rData1 [31:0] $end
$var wire 1 5 pcsrc $end
$var wire 32 6 pcplus4 [31:0] $end
$var wire 32 7 pcout [31:0] $end
$var wire 32 8 pcnext [31:0] $end
$var wire 32 9 pcbranch [31:0] $end
$var wire 1 : pc_write $end
$var wire 32 ; offset [31:0] $end
$var wire 1 < memtoreg $end
$var wire 1 = mem_wb_regwrite $end
$var wire 32 > mem_wb_readData2 [31:0] $end
$var wire 32 ? mem_wb_readData1 [31:0] $end
$var wire 1 @ mem_wb_memtoreg $end
$var wire 5 A mem_wb_destadd [4:0] $end
$var wire 1 B jump $end
$var wire 32 C instr [31:0] $end
$var wire 32 D imm [31:0] $end
$var wire 1 E if_id_write $end
$var wire 32 F if_id_npcout [31:0] $end
$var wire 32 G if_id_irout [31:0] $end
$var wire 1 H if_id_flush $end
$var wire 1 I id_writedmem $end
$var wire 1 J id_regwrite $end
$var wire 1 K id_regdest $end
$var wire 1 L id_readdmem $end
$var wire 1 M id_pcsrc $end
$var wire 1 N id_memtoreg $end
$var wire 1 O id_ex_writedmem $end
$var wire 5 P id_ex_rt [4:0] $end
$var wire 5 Q id_ex_rs [4:0] $end
$var wire 1 R id_ex_regwrite $end
$var wire 1 S id_ex_regdest $end
$var wire 1 T id_ex_readdmem $end
$var wire 5 U id_ex_rd [4:0] $end
$var wire 32 V id_ex_rData2 [31:0] $end
$var wire 32 W id_ex_rData1 [31:0] $end
$var wire 1 X id_ex_memtoreg $end
$var wire 32 Y id_ex_immout [31:0] $end
$var wire 1 Z id_ex_alusrc $end
$var wire 4 [ id_ex_alufunc [3:0] $end
$var wire 1 \ id_branch $end
$var wire 1 ] id_alusrc $end
$var wire 4 ^ id_alufunc [3:0] $end
$var wire 1 _ forwardC $end
$var wire 2 ` forwardB [1:0] $end
$var wire 2 a forwardA [1:0] $end
$var wire 32 b finalWriteData [31:0] $end
$var wire 1 c ex_mem_zero $end
$var wire 1 d ex_mem_writedmem $end
$var wire 32 e ex_mem_writeData [31:0] $end
$var wire 32 f ex_mem_result [31:0] $end
$var wire 1 g ex_mem_regwrite $end
$var wire 1 h ex_mem_readdmem $end
$var wire 1 i ex_mem_memtoreg $end
$var wire 5 j ex_mem_destadd [4:0] $end
$var wire 5 k dest [4:0] $end
$var wire 1 l branch_condition $end
$var wire 1 m alusrc $end
$var wire 32 n aluin2 [31:0] $end
$var wire 32 o aluin1 [31:0] $end
$var wire 4 p alufunc [3:0] $end
$scope module EX_MEM_MemRead $end
$var wire 1 " clk $end
$var wire 1 q ld $end
$var wire 1 # reset $end
$var wire 1 T din $end
$var parameter 32 r N $end
$var reg 1 h dout $end
$upscope $end
$scope module EX_MEM_MemtoReg $end
$var wire 1 " clk $end
$var wire 1 s ld $end
$var wire 1 # reset $end
$var wire 1 X din $end
$var parameter 32 t N $end
$var reg 1 i dout $end
$upscope $end
$scope module EX_MEM_Memwrite $end
$var wire 1 " clk $end
$var wire 1 u ld $end
$var wire 1 # reset $end
$var wire 1 O din $end
$var parameter 32 v N $end
$var reg 1 d dout $end
$upscope $end
$scope module EX_MEM_Regwrite $end
$var wire 1 " clk $end
$var wire 1 w ld $end
$var wire 1 # reset $end
$var wire 1 R din $end
$var parameter 32 x N $end
$var reg 1 g dout $end
$upscope $end
$scope module EX_MEM_destreg $end
$var wire 1 " clk $end
$var wire 1 y ld $end
$var wire 1 # reset $end
$var wire 5 z din [4:0] $end
$var parameter 32 { N $end
$var reg 5 | dout [4:0] $end
$upscope $end
$scope module EX_MEM_resultreg $end
$var wire 1 " clk $end
$var wire 1 } ld $end
$var wire 1 # reset $end
$var wire 32 ~ din [31:0] $end
$var parameter 32 !" N $end
$var reg 32 "" dout [31:0] $end
$upscope $end
$scope module EX_MEM_writeData $end
$var wire 1 " clk $end
$var wire 1 #" ld $end
$var wire 1 # reset $end
$var wire 32 $" din [31:0] $end
$var parameter 32 %" N $end
$var reg 32 &" dout [31:0] $end
$upscope $end
$scope module EX_MEM_zeroreg $end
$var wire 1 " clk $end
$var wire 1 '" ld $end
$var wire 1 # reset $end
$var wire 1 ' din $end
$var parameter 32 (" N $end
$var reg 1 c dout $end
$upscope $end
$scope module ID_EX_ALUfunc $end
$var wire 1 " clk $end
$var wire 1 )" ld $end
$var wire 1 # reset $end
$var wire 4 *" din [3:0] $end
$var parameter 32 +" N $end
$var reg 4 ," dout [3:0] $end
$upscope $end
$scope module ID_EX_ALUsrc $end
$var wire 1 " clk $end
$var wire 1 -" ld $end
$var wire 1 # reset $end
$var wire 1 ] din $end
$var parameter 32 ." N $end
$var reg 1 Z dout $end
$upscope $end
$scope module ID_EX_MemRead $end
$var wire 1 " clk $end
$var wire 1 /" ld $end
$var wire 1 # reset $end
$var wire 1 L din $end
$var parameter 32 0" N $end
$var reg 1 T dout $end
$upscope $end
$scope module ID_EX_MemtoReg $end
$var wire 1 " clk $end
$var wire 1 1" ld $end
$var wire 1 # reset $end
$var wire 1 N din $end
$var parameter 32 2" N $end
$var reg 1 X dout $end
$upscope $end
$scope module ID_EX_Memwrite $end
$var wire 1 " clk $end
$var wire 1 3" ld $end
$var wire 1 # reset $end
$var wire 1 I din $end
$var parameter 32 4" N $end
$var reg 1 O dout $end
$upscope $end
$scope module ID_EX_Regdest $end
$var wire 1 " clk $end
$var wire 1 5" ld $end
$var wire 1 # reset $end
$var wire 1 K din $end
$var parameter 32 6" N $end
$var reg 1 S dout $end
$upscope $end
$scope module ID_EX_Regwrite $end
$var wire 1 " clk $end
$var wire 1 7" ld $end
$var wire 1 # reset $end
$var wire 1 J din $end
$var parameter 32 8" N $end
$var reg 1 R dout $end
$upscope $end
$scope module ID_EX_imm $end
$var wire 1 " clk $end
$var wire 1 9" ld $end
$var wire 1 # reset $end
$var wire 32 :" din [31:0] $end
$var parameter 32 ;" N $end
$var reg 32 <" dout [31:0] $end
$upscope $end
$scope module ID_EX_rData1 $end
$var wire 1 " clk $end
$var wire 1 =" ld $end
$var wire 1 # reset $end
$var wire 32 >" din [31:0] $end
$var parameter 32 ?" N $end
$var reg 32 @" dout [31:0] $end
$upscope $end
$scope module ID_EX_rData2 $end
$var wire 1 " clk $end
$var wire 1 A" ld $end
$var wire 1 # reset $end
$var wire 32 B" din [31:0] $end
$var parameter 32 C" N $end
$var reg 32 D" dout [31:0] $end
$upscope $end
$scope module ID_EX_rd $end
$var wire 1 " clk $end
$var wire 5 E" din [4:0] $end
$var wire 1 F" ld $end
$var wire 1 # reset $end
$var parameter 32 G" N $end
$var reg 5 H" dout [4:0] $end
$upscope $end
$scope module ID_EX_rs $end
$var wire 1 " clk $end
$var wire 5 I" din [4:0] $end
$var wire 1 J" ld $end
$var wire 1 # reset $end
$var parameter 32 K" N $end
$var reg 5 L" dout [4:0] $end
$upscope $end
$scope module ID_EX_rt $end
$var wire 1 " clk $end
$var wire 5 M" din [4:0] $end
$var wire 1 N" ld $end
$var wire 1 # reset $end
$var parameter 32 O" N $end
$var reg 5 P" dout [4:0] $end
$upscope $end
$scope module IF_ID_flushbit $end
$var wire 1 " clk $end
$var wire 1 & din $end
$var wire 1 # reset $end
$var wire 1 E ld $end
$var parameter 32 Q" N $end
$var reg 1 H dout $end
$upscope $end
$scope module IF_ID_irreg $end
$var wire 1 " clk $end
$var wire 1 # reset $end
$var wire 1 E ld $end
$var wire 32 R" din [31:0] $end
$var parameter 32 S" N $end
$var reg 32 T" dout [31:0] $end
$upscope $end
$scope module IF_ID_npcreg $end
$var wire 1 " clk $end
$var wire 1 # reset $end
$var wire 1 E ld $end
$var wire 32 U" din [31:0] $end
$var parameter 32 V" N $end
$var reg 32 W" dout [31:0] $end
$upscope $end
$scope module MEM_WB_MemtoReg $end
$var wire 1 " clk $end
$var wire 1 i din $end
$var wire 1 X" ld $end
$var wire 1 # reset $end
$var parameter 32 Y" N $end
$var reg 1 @ dout $end
$upscope $end
$scope module MEM_WB_Regwrite $end
$var wire 1 " clk $end
$var wire 1 g din $end
$var wire 1 Z" ld $end
$var wire 1 # reset $end
$var parameter 32 [" N $end
$var reg 1 = dout $end
$upscope $end
$scope module MEM_WB_destreg $end
$var wire 1 " clk $end
$var wire 5 \" din [4:0] $end
$var wire 1 ]" ld $end
$var wire 1 # reset $end
$var parameter 32 ^" N $end
$var reg 5 _" dout [4:0] $end
$upscope $end
$scope module MEM_WB_readData1 $end
$var wire 1 " clk $end
$var wire 32 `" din [31:0] $end
$var wire 1 a" ld $end
$var wire 1 # reset $end
$var parameter 32 b" N $end
$var reg 32 c" dout [31:0] $end
$upscope $end
$scope module MEM_WB_readData2 $end
$var wire 1 " clk $end
$var wire 1 d" ld $end
$var wire 1 # reset $end
$var wire 32 e" din [31:0] $end
$var parameter 32 f" N $end
$var reg 32 g" dout [31:0] $end
$upscope $end
$scope module addpc $end
$var wire 32 h" b [31:0] $end
$var wire 32 i" out [31:0] $end
$var wire 32 j" a [31:0] $end
$upscope $end
$scope module alu $end
$var wire 1 k" en $end
$var wire 4 l" mode [3:0] $end
$var wire 32 m" out [31:0] $end
$var wire 1 ' zero $end
$var wire 32 n" operand2 [31:0] $end
$var wire 32 o" operand1 [31:0] $end
$var reg 32 p" ALUout [31:0] $end
$upscope $end
$scope module alumux $end
$var wire 32 q" b [31:0] $end
$var wire 1 Z s $end
$var wire 32 r" out [31:0] $end
$var wire 32 s" a [31:0] $end
$var parameter 32 t" N $end
$upscope $end
$scope module comparisonblock $end
$var wire 2 u" opcond [1:0] $end
$var wire 1 l y $end
$var wire 1 v" neq $end
$var wire 1 w" lt $end
$var wire 1 x" gt $end
$var wire 1 y" eq $end
$var wire 32 z" b [31:0] $end
$var wire 32 {" a [31:0] $end
$scope module cmp $end
$var wire 1 v" neq $end
$var wire 1 w" lt $end
$var wire 1 x" gt $end
$var wire 1 y" eq $end
$var wire 32 |" data2 [31:0] $end
$var wire 32 }" data1 [31:0] $end
$upscope $end
$upscope $end
$scope module controllerunit $end
$var wire 1 l branch_condition $end
$var wire 1 ! clk $end
$var wire 32 ~" instr [31:0] $end
$var wire 1 5 pcsrc $end
$var wire 1 # reset $end
$var wire 1 ( writedmem $end
$var wire 1 - regwrite $end
$var wire 1 . regdest $end
$var wire 1 0 readdmem $end
$var wire 1 < memtoreg $end
$var wire 1 B jump $end
$var wire 1 !# branch $end
$var wire 1 m alusrc $end
$var wire 4 "# alufunc [3:0] $end
$var reg 12 ## control_signals [11:0] $end
$upscope $end
$scope module destmux $end
$var wire 5 $# a [4:0] $end
$var wire 5 %# b [4:0] $end
$var wire 1 S s $end
$var wire 5 &# out [4:0] $end
$var parameter 32 '# N $end
$upscope $end
$scope module dmem $end
$var wire 32 (# addr [31:0] $end
$var wire 1 ! clk $end
$var wire 1 h read $end
$var wire 1 # reset $end
$var wire 1 d write $end
$var wire 32 )# dout [31:0] $end
$var wire 32 *# din [31:0] $end
$var integer 32 +# k [31:0] $end
$upscope $end
$scope module ext $end
$var wire 16 ,# a [15:0] $end
$var wire 32 -# y [31:0] $end
$upscope $end
$scope module flushunit $end
$var wire 4 .# alufunc [3:0] $end
$var wire 1 m alusrc $end
$var wire 1 $ branch $end
$var wire 1 % flush $end
$var wire 1 < memtoreg $end
$var wire 1 5 pcsrc $end
$var wire 1 0 readdmem $end
$var wire 1 . regdest $end
$var wire 1 - regwrite $end
$var wire 1 ( writedmem $end
$var wire 1 I id_writedmem $end
$var wire 1 J id_regwrite $end
$var wire 1 K id_regdest $end
$var wire 1 L id_readdmem $end
$var wire 1 M id_pcsrc $end
$var wire 1 N id_memtoreg $end
$var wire 1 \ id_branch $end
$var wire 1 ] id_alusrc $end
$var wire 4 /# id_alufunc [3:0] $end
$upscope $end
$scope module forward $end
$var wire 1 0# a1 $end
$var wire 1 1# a2 $end
$var wire 5 2# ex_mem_rd [4:0] $end
$var wire 1 g ex_mem_regwrite $end
$var wire 5 3# id_ex_rs [4:0] $end
$var wire 5 4# id_ex_rt [4:0] $end
$var wire 5 5# mem_wb_rd [4:0] $end
$var wire 1 = mem_wb_regwrite $end
$var wire 1 6# x $end
$var wire 1 7# x1 $end
$var wire 1 8# y $end
$var wire 1 9# y1 $end
$var wire 2 :# forwardB [1:0] $end
$var wire 2 ;# forwardA [1:0] $end
$var wire 1 <# b4 $end
$var wire 1 =# b3 $end
$var wire 1 ># b2 $end
$var wire 1 ?# b1 $end
$upscope $end
$scope module imem $end
$var wire 32 @# I [31:0] $end
$var wire 6 A# addr [5:0] $end
$var wire 1 B# read $end
$upscope $end
$scope module loadstore $end
$var wire 5 C# ex_mem_destadd [4:0] $end
$var wire 1 d ex_mem_writedmem $end
$var wire 1 _ forwarddatamem $end
$var wire 5 D# mem_wb_destadd [4:0] $end
$var wire 1 @ mem_wb_memtoreg $end
$var wire 1 E# y $end
$var wire 1 F# x $end
$upscope $end
$scope module loadstoreselect $end
$var wire 32 G# a [31:0] $end
$var wire 32 H# b [31:0] $end
$var wire 1 _ s $end
$var wire 32 I# out [31:0] $end
$var parameter 32 J# N $end
$upscope $end
$scope module mux3A $end
$var wire 32 K# a [31:0] $end
$var wire 32 L# c [31:0] $end
$var wire 2 M# sel [1:0] $end
$var wire 32 N# y [31:0] $end
$var wire 32 O# x [31:0] $end
$var wire 32 P# out [31:0] $end
$var wire 32 Q# b [31:0] $end
$scope module ab $end
$var wire 32 R# a [31:0] $end
$var wire 1 S# s $end
$var wire 32 T# out [31:0] $end
$var wire 32 U# b [31:0] $end
$var parameter 32 V# N $end
$upscope $end
$scope module abc $end
$var wire 32 W# a [31:0] $end
$var wire 1 X# s $end
$var wire 32 Y# out [31:0] $end
$var wire 32 Z# b [31:0] $end
$var parameter 32 [# N $end
$upscope $end
$scope module bc $end
$var wire 32 \# a [31:0] $end
$var wire 1 ]# s $end
$var wire 32 ^# out [31:0] $end
$var wire 32 _# b [31:0] $end
$var parameter 32 `# N $end
$upscope $end
$upscope $end
$scope module mux3B $end
$var wire 32 a# a [31:0] $end
$var wire 32 b# c [31:0] $end
$var wire 2 c# sel [1:0] $end
$var wire 32 d# y [31:0] $end
$var wire 32 e# x [31:0] $end
$var wire 32 f# out [31:0] $end
$var wire 32 g# b [31:0] $end
$scope module ab $end
$var wire 32 h# a [31:0] $end
$var wire 1 i# s $end
$var wire 32 j# out [31:0] $end
$var wire 32 k# b [31:0] $end
$var parameter 32 l# N $end
$upscope $end
$scope module abc $end
$var wire 32 m# a [31:0] $end
$var wire 1 n# s $end
$var wire 32 o# out [31:0] $end
$var wire 32 p# b [31:0] $end
$var parameter 32 q# N $end
$upscope $end
$scope module bc $end
$var wire 32 r# a [31:0] $end
$var wire 1 s# s $end
$var wire 32 t# out [31:0] $end
$var wire 32 u# b [31:0] $end
$var parameter 32 v# N $end
$upscope $end
$upscope $end
$scope module muxbr $end
$var wire 32 w# a [31:0] $end
$var wire 1 5 s $end
$var wire 32 x# out [31:0] $end
$var wire 32 y# b [31:0] $end
$var parameter 32 z# N $end
$upscope $end
$scope module offsetmux $end
$var wire 32 {# a [31:0] $end
$var wire 32 |# b [31:0] $end
$var wire 1 B s $end
$var wire 32 }# out [31:0] $end
$var parameter 32 ~# N $end
$upscope $end
$scope module pcbranchadder $end
$var wire 32 !$ a [31:0] $end
$var wire 32 "$ b [31:0] $end
$var wire 32 #$ out [31:0] $end
$upscope $end
$scope module pcreg $end
$var wire 1 ! clk $end
$var wire 32 $$ din [31:0] $end
$var wire 1 # reset $end
$var wire 1 : ld $end
$var parameter 32 %$ N $end
$var reg 32 &$ dout [31:0] $end
$upscope $end
$scope module rbank $end
$var wire 1 ! clk $end
$var wire 5 '$ dr [4:0] $end
$var wire 1 # reset $end
$var wire 5 ($ sr1 [4:0] $end
$var wire 5 )$ sr2 [4:0] $end
$var wire 1 = write $end
$var wire 32 *$ wrData [31:0] $end
$var wire 32 +$ rData2 [31:0] $end
$var wire 32 ,$ rData1 [31:0] $end
$var reg 32 -$ regData1 [31:0] $end
$var reg 32 .$ regData2 [31:0] $end
$var integer 32 /$ k [31:0] $end
$upscope $end
$scope module stallunit $end
$var wire 1 T id_ex_readdmem $end
$var wire 5 0$ id_ex_rt [4:0] $end
$var wire 5 1$ rs [4:0] $end
$var wire 5 2$ rt [4:0] $end
$var wire 1 3$ y $end
$var wire 1 4$ z $end
$var wire 1 5$ x $end
$var wire 1 + stall $end
$var wire 1 : pc_write $end
$var wire 1 E if_id_write $end
$upscope $end
$scope module wbforward $end
$var wire 5 6$ mem_wb_destadd [4:0] $end
$var wire 1 = mem_wb_regwrite $end
$var wire 32 7$ rData1 [31:0] $end
$var wire 32 8$ rData2 [31:0] $end
$var wire 5 9$ rs [4:0] $end
$var wire 5 :$ rt [4:0] $end
$var wire 32 ;$ wb_writedata [31:0] $end
$var wire 32 <$ rData2out [31:0] $end
$var wire 32 =$ rData1out [31:0] $end
$var reg 1 >$ readrs $end
$var reg 1 ?$ readrt $end
$scope module muxreaddata1 $end
$var wire 32 @$ a [31:0] $end
$var wire 1 >$ s $end
$var wire 32 A$ out [31:0] $end
$var wire 32 B$ b [31:0] $end
$var parameter 32 C$ N $end
$upscope $end
$scope module muxreaddata2 $end
$var wire 32 D$ a [31:0] $end
$var wire 1 ?$ s $end
$var wire 32 E$ out [31:0] $end
$var wire 32 F$ b [31:0] $end
$var parameter 32 G$ N $end
$upscope $end
$upscope $end
$scope module wbmux $end
$var wire 32 H$ a [31:0] $end
$var wire 32 I$ b [31:0] $end
$var wire 1 @ s $end
$var wire 32 J$ out [31:0] $end
$var parameter 32 K$ N $end
$upscope $end
$upscope $end
$upscope $end
$enddefinitions $end
$comment Show the parameter values. $end
$dumpall
b100000 K$
b100000 G$
b100000 C$
b100000 %$
b100000 ~#
b100000 z#
b100000 v#
b100000 q#
b100000 l#
b100000 `#
b100000 [#
b100000 V#
b100000 J#
b101 '#
b100000 t"
b100000 f"
b100000 b"
b101 ^"
b1 ["
b1 Y"
b100000 V"
b100000 S"
b1 Q"
b101 O"
b101 K"
b101 G"
b100000 C"
b100000 ?"
b100000 ;"
b1 8"
b1 6"
b1 4"
b1 2"
b1 0"
b1 ."
b100 +"
b1 ("
b100000 %"
b100000 !"
b101 {
b1 x
b1 v
b1 t
b1 r
$end
#0
$dumpvars
b0 J$
b0 I$
b0 H$
b0 F$
bx E$
bx D$
b0 B$
bx A$
bx @$
0?$
0>$
bx =$
bx <$
b0 ;$
b0 :$
b0 9$
bx 8$
bx 7$
b0 6$
05$
04$
13$
b0 2$
b0 1$
b0 0$
bx /$
bx .$
bx -$
bx ,$
bx +$
b0 *$
b0 )$
b0 ($
b0 '$
bx &$
bx $$
b0 #$
b0 "$
b0 !$
b0 }#
b0 |#
b0 {#
b0 y#
bx x#
bx w#
b0 u#
b0 t#
0s#
b0 r#
b0 p#
b0 o#
0n#
b0 m#
b0 k#
b0 j#
0i#
b0 h#
b0 g#
b0 f#
b0 e#
b0 d#
b0 c#
b0 b#
b0 a#
b0 _#
b0 ^#
0]#
b0 \#
b0 Z#
b0 Y#
0X#
b0 W#
b0 U#
b0 T#
0S#
b0 R#
b0 Q#
b0 P#
b0 O#
b0 N#
b0 M#
b0 L#
b0 K#
b0 I#
b0 H#
b0 G#
1F#
0E#
b0 D#
b0 C#
1B#
bx A#
bx @#
1?#
1>#
1=#
1<#
b0 ;#
b0 :#
09#
08#
07#
06#
b0 5#
b0 4#
b0 3#
b0 2#
01#
00#
bx /#
bx .#
b0 -#
b0 ,#
bx +#
b0 *#
bx )#
b0 (#
b0 &#
b0 %#
b0 $#
bx ##
bx "#
x!#
b0 ~"
bx }"
bx |"
bx {"
bx z"
xy"
xx"
xw"
xv"
b0 u"
b0 s"
b0 r"
b0 q"
b0 p"
b0 o"
b0 n"
b0 m"
b0 l"
1k"
bx j"
bx i"
b100 h"
b0 g"
bx e"
1d"
b0 c"
1a"
b0 `"
b0 _"
1]"
b0 \"
1Z"
1X"
b0 W"
bx U"
b0 T"
bx R"
b0 P"
1N"
b0 M"
b0 L"
1J"
b0 I"
b0 H"
1F"
b0 E"
b0 D"
bx B"
1A"
b0 @"
bx >"
1="
b0 <"
b0 :"
19"
17"
15"
13"
11"
1/"
1-"
b0 ,"
bx *"
1)"
1'"
b0 &"
b0 $"
1#"
b0 ""
b0 ~
1}
b0 |
b0 z
1y
1w
1u
1s
1q
bx p
b0 o
b0 n
xm
xl
b0 k
b0 j
0i
0h
0g
b0 f
b0 e
0d
0c
b0 b
b0 a
b0 `
0_
bx ^
x]
z\
b0 [
0Z
b0 Y
0X
b0 W
b0 V
b0 U
0T
0S
0R
b0 Q
b0 P
0O
xN
xM
xL
xK
xJ
xI
0H
b0 G
b0 F
1E
b0 D
bx C
xB
b0 A
0@
b0 ?
b0 >
0=
x<
b0 ;
1:
b0 9
bx 8
bx 7
bx 6
x5
bx 4
bx 3
bx 2
bx 1
x0
bx /
x.
x-
b0 ,
0+
b0 *
b0 )
x(
1'
x&
0%
z$
1#
1"
0!
$end
#5
b0 ^
b0 *"
b0 /#
0M
0]
0K
0L
0I
0J
0N
0&
05
b100 8
b100 x#
b100 $$
b0 A#
0m
b0 p
b0 "#
b0 .#
0.
00
0(
0-
0<
0B
0!#
b100 6
b100 U"
b100 i"
b100 w#
b0 7
b0 j"
b0 &$
b0 ##
b100000 /$
b10000000000 +#
0"
1!
#7
0l
b0 1
b0 <$
b0 E$
b0 3
b0 =$
b0 A$
0v"
1y"
0x"
0w"
b0 2
b0 B"
b0 z"
b0 |"
b0 +$
b0 .$
b0 8$
b0 D$
b0 4
b0 >"
b0 {"
b0 }"
b0 ,$
b0 -$
b0 7$
b0 @$
#10
1"
0!
#15
b10000 ;
b10000 }#
b10000 "$
b10000 {#
b1 M"
b1 2$
b1000000000000010000 |#
b100 D
b100 :"
b100 -#
b100 ,#
b1 :$
b1 )$
b1000 8
b1000 x#
b1000 $$
b1 A#
b10100 9
b10100 y#
b10100 #$
b100 F
b100 W"
b100 !$
b1000000000000010000000000000100 G
b1000000000000010000000000000100 T"
b1000000000000010000000000000100 ~"
1c
bx >
bx g"
bx H#
bx I$
b1000 6
b1000 U"
b1000 i"
b1000 w#
b100 7
b100 j"
b100 &$
0"
1!
b1000000000000100000000000001010 C
b1000000000000100000000000001010 R"
b1000000000000100000000000001010 @#
0#
#16
1]
1J
1m
1-
b100000001000 ##
#20
b101000 ;
b101000 }#
b101000 "$
0'
b100 ,
b100 ~
b100 m"
b100 p"
b101000 {#
b100 n
b100 n"
b100 r"
b1 k
b1 z
b1 &#
03$
b10 M"
b10 2$
b10000000000000101000 |#
b1010 D
b1010 :"
b1010 -#
b1010 ,#
b10 :$
b10 )$
1R
1Z
0=#
0<#
b1 P
b1 P"
b1 $#
b1 4#
b1 0$
b100 Y
b100 <"
b100 q"
b1000000000000100000000000001010 G
b1000000000000100000000000001010 T"
b1000000000000100000000000001010 ~"
b110000 9
b110000 y#
b110000 #$
b1000 F
b1000 W"
b1000 !$
1"
0!
#25
b1100 8
b1100 x#
b1100 $$
b10000010001100000000001 C
b10000010001100000000001 R"
b10000010001100000000001 @#
b10 A#
b1100 6
b1100 U"
b1100 i"
b1100 w#
b1000 7
b1000 j"
b1000 &$
0"
1!
#30
b110000000000100 ;
b110000000000100 }#
b110000000000100 "$
b110000000000100 {#
b1010 ,
b1010 ~
b1010 m"
b1010 p"
b11 E"
b1 M"
b10 I"
b1 2$
b10 1$
b1000001000110000000000100 |#
b1100000000001 D
b1100000000001 :"
b1100000000001 -#
b1100000000001 ,#
b1 :$
b10 9$
b1 )$
b10 ($
b1010 n
b1010 n"
b1010 r"
b10 k
b10 z
b10 &#
13$
b100 N#
b100 Z#
b100 ^#
b100 d#
b100 p#
b100 t#
10#
b110000000010000 9
b110000000010000 y#
b110000000010000 #$
b1100 F
b1100 W"
b1100 !$
b10000010001100000000001 G
b10000010001100000000001 T"
b10000010001100000000001 ~"
b1010 Y
b1010 <"
b1010 q"
b10 P
b10 P"
b10 $#
b10 4#
b10 0$
b100 f
b100 ""
b100 `"
b100 (#
b100 L#
b100 \#
b100 b#
b100 r#
0c
0?#
0=#
0F#
b1 j
b1 |
b1 \"
b1 2#
b1 C#
1g
1"
0!
#35
b10000 8
b10000 x#
b10000 $$
b10000010010000000000010 C
b10000010010000000000010 R"
b10000010010000000000010 @#
b11 A#
b10000 6
b10000 U"
b10000 i"
b10000 w#
b1100 7
b1100 j"
b1100 &$
0"
1!
#36
0]
1K
0m
1.
b1001000 ##
#40
b100 )
b100 $"
b100 s"
b100 f#
b100 o#
b100 e#
b100 j#
b100 m#
1i#
1s#
b1 `
b1 :#
b1 c#
b1010 o
b1010 o"
b1010 P#
b1010 Y#
b1000000000001000 ;
b1000000000001000 }#
b1000000000001000 "$
19#
b100 1
b100 <$
b100 E$
1X#
0'
b1110 ,
b1110 ~
b1110 m"
b1110 p"
b1000000000001000 {#
11#
1?$
b100 *
b100 Q#
b100 U#
b100 _#
b100 g#
b100 k#
b100 u#
b100 *$
b100 ;$
b100 B$
b100 F$
b100 J$
b10 a
b10 ;#
b10 M#
16#
b1010 N#
b1010 Z#
b1010 ^#
b100 d#
b100 p#
b100 t#
b11 k
b11 z
b11 &#
b100 n
b100 n"
b100 r"
b100 E"
b1000001001000000000001000 |#
b10000000000010 D
b10000000000010 :"
b10000000000010 -#
b10000000000010 ,#
1=
1<#
b1 A
b1 _"
b1 5#
b1 D#
b1 '$
b1 6$
b100 ?
b100 c"
b100 H$
1?#
b10 j
b10 |
b10 \"
b10 2#
b10 C#
b1010 f
b1010 ""
b1010 `"
b1010 (#
b1010 L#
b1010 \#
b1010 b#
b1010 r#
1S
0Z
b11 U
b11 H"
b11 %#
0=#
b1 P
b1 P"
b1 $#
b1 4#
b1 0$
0>#
b10 Q
b10 L"
b10 3#
b1100000000001 Y
b1100000000001 <"
b1100000000001 q"
b10000010010000000000010 G
b10000010010000000000010 T"
b10000010010000000000010 ~"
b1000000000011000 9
b1000000000011000 y#
b1000000000011000 #$
b10000 F
b10000 W"
b10000 !$
1"
0!
#45
b10100 8
b10100 x#
b10100 $$
b10000010010100000000001 C
b10000010010100000000001 R"
b10000010010100000000001 @#
b100 A#
b10100 6
b10100 U"
b10100 i"
b10100 w#
b10000 7
b10000 j"
b10000 &$
0"
1!
#46
b1 ^
b1 *"
b1 /#
b1 p
b1 "#
b1 .#
b11001000 ##
#47
1v"
0y"
1w"
b100 2
b100 B"
b100 z"
b100 |"
b100 +$
b100 .$
b100 8$
b100 D$
#50
b1010 O#
b1010 T#
b1010 W#
1S#
1]#
b100 n
b100 n"
b100 r"
b1010000000000100 ;
b1010000000000100 }#
b1010000000000100 "$
b100 )
b100 $"
b100 s"
b100 f#
b100 o#
0i#
0s#
b1010000000000100 {#
b1010 o
b1010 o"
b1010 P#
b1010 Y#
0X#
b1110 d#
b1110 p#
b1110 t#
b100 e#
b100 j#
b100 m#
b0 `
b0 :#
b0 c#
b1010 3
b1010 =$
b1010 A$
b101 E"
b1000001001010000000000100 |#
b10100000000001 D
b10100000000001 :"
b10100000000001 -#
b10100000000001 ,#
b100 k
b100 z
b100 &#
b110 ,
b110 ~
b110 m"
b110 p"
b1010 N#
b1010 Z#
b1010 ^#
b100 b
b100 *#
b100 I#
b1 a
b1 ;#
b1 M#
06#
b1010 *
b1010 Q#
b1010 U#
b1010 _#
b1010 g#
b1010 k#
b1010 u#
b1010 *$
b1010 ;$
b1010 B$
b1010 F$
b1010 J$
18#
09#
0?$
1>$
b1010000000011000 9
b1010000000011000 y#
b1010000000011000 #$
b10100 F
b10100 W"
b10100 !$
b10000010010100000000001 G
b10000010010100000000001 T"
b10000010010100000000001 ~"
b100 V
b100 D"
b100 a#
b100 h#
b10000000000010 Y
b10000000000010 <"
b10000000000010 q"
b100 U
b100 H"
b100 %#
b1 [
b1 ,"
b1 l"
b1110 f
b1110 ""
b1110 `"
b1110 (#
b1110 L#
b1110 \#
b1110 b#
b1110 r#
b100 e
b100 &"
b100 G#
0?#
b11 j
b11 |
b11 \"
b11 2#
b11 C#
b1010 ?
b1010 c"
b1010 H$
1>#
0<#
0F#
b10 A
b10 _"
b10 5#
b10 D#
b10 '$
b10 6$
1"
0!
#55
b11000 8
b11000 x#
b11000 $$
b1000000011000110000000000011110 C
b1000000011000110000000000011110 R"
b1000000011000110000000000011110 @#
b101 A#
b11000 6
b11000 U"
b11000 i"
b11000 w#
b10100 7
b10100 j"
b10100 &$
0"
1!
#56
b0 ^
b0 *"
b0 /#
b0 p
b0 "#
b0 .#
b1001000 ##
#57
1l
1x"
0w"
b1010 4
b1010 >"
b1010 {"
b1010 }"
b1010 ,$
b1010 -$
b1010 7$
b1010 @$
