Pipelined-KGP-RISC-Processor/test.vcd
$date
	Mon Dec 25 22:35:50 2023
$end
$version
	Icarus Verilog
$end
$timescale
	1s
$end
$scope module mips_tb $end
$var reg 1 ! clk $end
$var reg 1 " clkbar $end
$var reg 1 # reset $end
$scope module dut $end
$var wire 32 $ aluin1 [31:0] $end
$var wire 1 ! clk $end
$var wire 1 " clkbar $end
$var wire 1 % flush $end
$var wire 1 & if_flush $end
$var wire 1 ' pcwriteen $end
$var wire 1 # reset $end
$var wire 1 ( zero $end
$var wire 1 ) writedmem $end
$var wire 32 * wb_writedata [31:0] $end
$var wire 1 + stall $end
$var wire 5 , rt [4:0] $end
$var wire 5 - rs [4:0] $end
$var wire 32 . result [31:0] $end
$var wire 1 / regwrite $end
$var wire 1 0 regdest $end
$var wire 32 1 readdmemData [31:0] $end
$var wire 1 2 readdmem $end
$var wire 5 3 rd [4:0] $end
$var wire 32 4 rData2 [31:0] $end
$var wire 32 5 rData1 [31:0] $end
$var wire 1 6 pcsrc $end
$var wire 32 7 pcplus4 [31:0] $end
$var wire 32 8 pcout [31:0] $end
$var wire 32 9 pcnext [31:0] $end
$var wire 32 : pcbranch [31:0] $end
$var wire 1 ; pc_write $end
$var wire 1 < pc_en $end
$var wire 32 = offset [31:0] $end
$var wire 1 > memtoreg $end
$var wire 1 ? mem_wb_regwrite $end
$var wire 32 @ mem_wb_readData2 [31:0] $end
$var wire 32 A mem_wb_readData1 [31:0] $end
$var wire 1 B mem_wb_memtoreg $end
$var wire 5 C mem_wb_destadd [4:0] $end
$var wire 1 D jump $end
$var wire 32 E instr [31:0] $end
$var wire 32 F imm [31:0] $end
$var wire 1 G if_id_write $end
$var wire 32 H if_id_npcout [31:0] $end
$var wire 32 I if_id_irout [31:0] $end
$var wire 1 J if_id_flush $end
$var wire 1 K id_writedmem $end
$var wire 1 L id_regwrite $end
$var wire 1 M id_regdest $end
$var wire 1 N id_readdmem $end
$var wire 1 O id_memtoreg $end
$var wire 1 P id_ex_writedmem $end
$var wire 5 Q id_ex_rt [4:0] $end
$var wire 5 R id_ex_rs [4:0] $end
$var wire 1 S id_ex_regwrite $end
$var wire 1 T id_ex_regdest $end
$var wire 1 U id_ex_readdmem $end
$var wire 5 V id_ex_rd [4:0] $end
$var wire 32 W id_ex_rData2 [31:0] $end
$var wire 32 X id_ex_rData1 [31:0] $end
$var wire 1 Y id_ex_memtoreg $end
$var wire 32 Z id_ex_immout [31:0] $end
$var wire 1 [ id_ex_alusrc $end
$var wire 4 \ id_ex_alufunc [3:0] $end
$var wire 1 ] id_alusrc $end
$var wire 4 ^ id_alufunc [3:0] $end
$var wire 1 _ forwardC $end
$var wire 3 ` forwardB [2:0] $end
$var wire 3 a forwardA [2:0] $end
$var wire 32 b finalWriteData [31:0] $end
$var wire 1 c ex_mem_zero $end
$var wire 1 d ex_mem_writedmem $end
$var wire 32 e ex_mem_writeData [31:0] $end
$var wire 32 f ex_mem_result [31:0] $end
$var wire 1 g ex_mem_regwrite $end
$var wire 1 h ex_mem_readdmem $end
$var wire 1 i ex_mem_memtoreg $end
$var wire 5 j ex_mem_destadd [4:0] $end
$var wire 5 k dest [4:0] $end
$var wire 1 l branch_condition $end
$var wire 1 m alusrc $end
$var wire 32 n aluin2 [31:0] $end
$var wire 4 o alufunc [3:0] $end
$var wire 32 p ReadData2out [31:0] $end
$var wire 32 q ReadData1out [31:0] $end
$scope module EX_MEM_MemRead $end
$var wire 1 " clk $end
$var wire 1 r ld $end
$var wire 1 # reset $end
$var wire 1 U din $end
$var parameter 32 s N $end
$var reg 1 h dout $end
$upscope $end
$scope module EX_MEM_MemtoReg $end
$var wire 1 " clk $end
$var wire 1 t ld $end
$var wire 1 # reset $end
$var wire 1 Y din $end
$var parameter 32 u N $end
$var reg 1 i dout $end
$upscope $end
$scope module EX_MEM_Memwrite $end
$var wire 1 " clk $end
$var wire 1 v ld $end
$var wire 1 # reset $end
$var wire 1 P din $end
$var parameter 32 w N $end
$var reg 1 d dout $end
$upscope $end
$scope module EX_MEM_Regwrite $end
$var wire 1 " clk $end
$var wire 1 x ld $end
$var wire 1 # reset $end
$var wire 1 S din $end
$var parameter 32 y N $end
$var reg 1 g dout $end
$upscope $end
$scope module EX_MEM_destreg $end
$var wire 1 " clk $end
$var wire 1 z ld $end
$var wire 1 # reset $end
$var wire 5 { din [4:0] $end
$var parameter 32 | N $end
$var reg 5 } dout [4:0] $end
$upscope $end
$scope module EX_MEM_resultreg $end
$var wire 1 " clk $end
$var wire 1 ~ ld $end
$var wire 1 # reset $end
$var wire 32 !" din [31:0] $end
$var parameter 32 "" N $end
$var reg 32 #" dout [31:0] $end
$upscope $end
$scope module EX_MEM_writeData $end
$var wire 1 " clk $end
$var wire 1 $" ld $end
$var wire 1 # reset $end
$var wire 32 %" din [31:0] $end
$var parameter 32 &" N $end
$var reg 32 '" dout [31:0] $end
$upscope $end
$scope module EX_MEM_zeroreg $end
$var wire 1 " clk $end
$var wire 1 (" ld $end
$var wire 1 # reset $end
$var wire 1 ( din $end
$var parameter 32 )" N $end
$var reg 1 c dout $end
$upscope $end
$scope module ID_EX_ALUfunc $end
$var wire 1 " clk $end
$var wire 1 *" ld $end
$var wire 1 # reset $end
$var wire 4 +" din [3:0] $end
$var parameter 32 ," N $end
$var reg 4 -" dout [3:0] $end
$upscope $end
$scope module ID_EX_ALUsrc $end
$var wire 1 " clk $end
$var wire 1 ." ld $end
$var wire 1 # reset $end
$var wire 1 ] din $end
$var parameter 32 /" N $end
$var reg 1 [ dout $end
$upscope $end
$scope module ID_EX_MemRead $end
$var wire 1 " clk $end
$var wire 1 0" ld $end
$var wire 1 # reset $end
$var wire 1 N din $end
$var parameter 32 1" N $end
$var reg 1 U dout $end
$upscope $end
$scope module ID_EX_MemtoReg $end
$var wire 1 " clk $end
$var wire 1 2" ld $end
$var wire 1 # reset $end
$var wire 1 O din $end
$var parameter 32 3" N $end
$var reg 1 Y dout $end
$upscope $end
$scope module ID_EX_Memwrite $end
$var wire 1 " clk $end
$var wire 1 4" ld $end
$var wire 1 # reset $end
$var wire 1 K din $end
$var parameter 32 5" N $end
$var reg 1 P dout $end
$upscope $end
$scope module ID_EX_Regdest $end
$var wire 1 " clk $end
$var wire 1 6" ld $end
$var wire 1 # reset $end
$var wire 1 M din $end
$var parameter 32 7" N $end
$var reg 1 T dout $end
$upscope $end
$scope module ID_EX_Regwrite $end
$var wire 1 " clk $end
$var wire 1 8" ld $end
$var wire 1 # reset $end
$var wire 1 L din $end
$var parameter 32 9" N $end
$var reg 1 S dout $end
$upscope $end
$scope module ID_EX_imm $end
$var wire 1 " clk $end
$var wire 1 :" ld $end
$var wire 1 # reset $end
$var wire 32 ;" din [31:0] $end
$var parameter 32 <" N $end
$var reg 32 =" dout [31:0] $end
$upscope $end
$scope module ID_EX_rData1 $end
$var wire 1 " clk $end
$var wire 1 >" ld $end
$var wire 1 # reset $end
$var wire 32 ?" din [31:0] $end
$var parameter 32 @" N $end
$var reg 32 A" dout [31:0] $end
$upscope $end
$scope module ID_EX_rData2 $end
$var wire 1 " clk $end
$var wire 1 B" ld $end
$var wire 1 # reset $end
$var wire 32 C" din [31:0] $end
$var parameter 32 D" N $end
$var reg 32 E" dout [31:0] $end
$upscope $end
$scope module ID_EX_rd $end
$var wire 1 " clk $end
$var wire 5 F" din [4:0] $end
$var wire 1 G" ld $end
$var wire 1 # reset $end
$var parameter 32 H" N $end
$var reg 5 I" dout [4:0] $end
$upscope $end
$scope module ID_EX_rs $end
$var wire 1 " clk $end
$var wire 5 J" din [4:0] $end
$var wire 1 K" ld $end
$var wire 1 # reset $end
$var parameter 32 L" N $end
$var reg 5 M" dout [4:0] $end
$upscope $end
$scope module ID_EX_rt $end
$var wire 1 " clk $end
$var wire 5 N" din [4:0] $end
$var wire 1 O" ld $end
$var wire 1 # reset $end
$var parameter 32 P" N $end
$var reg 5 Q" dout [4:0] $end
$upscope $end
$scope module IF_ID_flushbit $end
$var wire 1 " clk $end
$var wire 1 & din $end
$var wire 1 # reset $end
$var wire 1 G ld $end
$var parameter 32 R" N $end
$var reg 1 J dout $end
$upscope $end
$scope module IF_ID_irreg $end
$var wire 1 " clk $end
$var wire 1 # reset $end
$var wire 1 G ld $end
$var wire 32 S" din [31:0] $end
$var parameter 32 T" N $end
$var reg 32 U" dout [31:0] $end
$upscope $end
$scope module IF_ID_npcreg $end
$var wire 1 " clk $end
$var wire 1 # reset $end
$var wire 1 G ld $end
$var wire 32 V" din [31:0] $end
$var parameter 32 W" N $end
$var reg 32 X" dout [31:0] $end
$upscope $end
$scope module MEM_WB_MemtoReg $end
$var wire 1 " clk $end
$var wire 1 i din $end
$var wire 1 Y" ld $end
$var wire 1 # reset $end
$var parameter 32 Z" N $end
$var reg 1 B dout $end
$upscope $end
$scope module MEM_WB_Regwrite $end
$var wire 1 " clk $end
$var wire 1 g din $end
$var wire 1 [" ld $end
$var wire 1 # reset $end
$var parameter 32 \" N $end
$var reg 1 ? dout $end
$upscope $end
$scope module MEM_WB_destreg $end
$var wire 1 " clk $end
$var wire 5 ]" din [4:0] $end
$var wire 1 ^" ld $end
$var wire 1 # reset $end
$var parameter 32 _" N $end
$var reg 5 `" dout [4:0] $end
$upscope $end
$scope module MEM_WB_readData1 $end
$var wire 1 " clk $end
$var wire 32 a" din [31:0] $end
$var wire 1 b" ld $end
$var wire 1 # reset $end
$var parameter 32 c" N $end
$var reg 32 d" dout [31:0] $end
$upscope $end
$scope module MEM_WB_readData2 $end
$var wire 1 " clk $end
$var wire 1 e" ld $end
$var wire 1 # reset $end
$var wire 32 f" din [31:0] $end
$var parameter 32 g" N $end
$var reg 32 h" dout [31:0] $end
$upscope $end
$scope module addpc $end
$var wire 32 i" b [31:0] $end
$var wire 32 j" out [31:0] $end
$var wire 32 k" a [31:0] $end
$upscope $end
$scope module alu $end
$var wire 1 l" en $end
$var wire 4 m" mode [3:0] $end
$var wire 32 n" operand1 [31:0] $end
$var wire 32 o" out [31:0] $end
$var wire 1 ( zero $end
$var wire 32 p" operand2 [31:0] $end
$var reg 32 q" ALUout [31:0] $end
$upscope $end
$scope module alumux $end
$var wire 32 r" a [31:0] $end
$var wire 32 s" b [31:0] $end
$var wire 1 [ s $end
$var wire 32 t" out [31:0] $end
$var parameter 32 u" N $end
$upscope $end
$scope module comparisonblock $end
$var wire 2 v" opcond [1:0] $end
$var wire 1 l y $end
$var wire 1 w" neq $end
$var wire 1 x" lt $end
$var wire 1 y" gt $end
$var wire 1 z" eq $end
$var wire 32 {" b [31:0] $end
$var wire 32 |" a [31:0] $end
$scope module cmp $end
$var wire 1 w" neq $end
$var wire 1 x" lt $end
$var wire 1 y" gt $end
$var wire 1 z" eq $end
$var wire 32 }" data2 [31:0] $end
$var wire 32 ~" data1 [31:0] $end
$upscope $end
$upscope $end
$scope module controllerunit $end
$var wire 1 l branch_condition $end
$var wire 1 ! clk $end
$var wire 32 !# instr [31:0] $end
$var wire 1 6 pcsrc $end
$var wire 1 # reset $end
$var wire 1 ) writedmem $end
$var wire 1 / regwrite $end
$var wire 1 0 regdest $end
$var wire 1 2 readdmem $end
$var wire 1 > memtoreg $end
$var wire 1 D jump $end
$var wire 1 "# branch $end
$var wire 1 m alusrc $end
$var wire 4 ## alufunc [3:0] $end
$var reg 12 $# control_signals [11:0] $end
$upscope $end
$scope module destmux $end
$var wire 5 %# a [4:0] $end
$var wire 5 &# b [4:0] $end
$var wire 1 T s $end
$var wire 5 '# out [4:0] $end
$var parameter 32 (# N $end
$upscope $end
$scope module dmem $end
$var wire 32 )# addr [31:0] $end
$var wire 1 ! clk $end
$var wire 1 h read $end
$var wire 1 # reset $end
$var wire 1 d write $end
$var wire 32 *# dout [31:0] $end
$var wire 32 +# din [31:0] $end
$var integer 32 ,# k [31:0] $end
$upscope $end
$scope module ext $end
$var wire 16 -# a [15:0] $end
$var wire 32 .# y [31:0] $end
$upscope $end
$scope module flushunit $end
$var wire 4 /# alufunc [3:0] $end
$var wire 1 m alusrc $end
$var wire 1 % flush $end
$var wire 1 > memtoreg $end
$var wire 1 2 readdmem $end
$var wire 1 0 regdest $end
$var wire 1 / regwrite $end
$var wire 1 ) writedmem $end
$var wire 1 K id_writedmem $end
$var wire 1 L id_regwrite $end
$var wire 1 M id_regdest $end
$var wire 1 N id_readdmem $end
$var wire 1 O id_memtoreg $end
$var wire 1 ] id_alusrc $end
$var wire 4 0# id_alufunc [3:0] $end
$upscope $end
$scope module forwarding $end
$var wire 5 1# dest [4:0] $end
$var wire 5 2# ex_mem_destadd [4:0] $end
$var wire 1 i ex_mem_memtoreg $end
$var wire 1 h ex_mem_readdmem $end
$var wire 1 g ex_mem_regwrite $end
$var wire 3 3# forwardA [2:0] $end
$var wire 3 4# forwardB [2:0] $end
$var wire 1 S id_ex_regwrite $end
$var wire 5 5# mem_wb_destadd [4:0] $end
$var wire 1 ? mem_wb_regwrite $end
$var wire 5 6# rs [4:0] $end
$var wire 5 7# rt [4:0] $end
$var reg 3 8# fA [2:0] $end
$var reg 3 9# fB [2:0] $end
$upscope $end
$scope module imem $end
$var wire 6 :# addr [5:0] $end
$var wire 1 ! clk $end
$var wire 1 ;# read $end
$var wire 1 < pc_en $end
$var wire 32 <# instr [31:0] $end
$upscope $end
$scope module loadstore $end
$var wire 5 =# ex_mem_destadd [4:0] $end
$var wire 1 d ex_mem_writedmem $end
$var wire 1 _ forwarddatamem $end
$var wire 5 ># mem_wb_destadd [4:0] $end
$var wire 1 B mem_wb_memtoreg $end
$var wire 1 ?# y $end
$var wire 1 @# x $end
$upscope $end
$scope module loadstoreselect $end
$var wire 32 A# a [31:0] $end
$var wire 32 B# b [31:0] $end
$var wire 1 _ s $end
$var wire 32 C# out [31:0] $end
$var parameter 32 D# N $end
$upscope $end
$scope module muxbr $end
$var wire 32 E# a [31:0] $end
$var wire 1 6 s $end
$var wire 32 F# out [31:0] $end
$var wire 32 G# b [31:0] $end
$var parameter 32 H# N $end
$upscope $end
$scope module offsetmux $end
$var wire 32 I# a [31:0] $end
$var wire 32 J# b [31:0] $end
$var wire 1 D s $end
$var wire 32 K# out [31:0] $end
$var parameter 32 L# N $end
$upscope $end
$scope module pcbranchadder $end
$var wire 32 M# a [31:0] $end
$var wire 32 N# b [31:0] $end
$var wire 32 O# out [31:0] $end
$upscope $end
$scope module pcreg $end
$var wire 1 ! clk $end
$var wire 32 P# din [31:0] $end
$var wire 1 ' ld $end
$var wire 1 # reset $end
$var parameter 32 Q# N $end
$var reg 32 R# dout [31:0] $end
$upscope $end
$scope module rbank $end
$var wire 1 ! clk $end
$var wire 5 S# dr [4:0] $end
$var wire 32 T# rData1 [31:0] $end
$var wire 32 U# rData2 [31:0] $end
$var wire 1 # reset $end
$var wire 5 V# sr1 [4:0] $end
$var wire 5 W# sr2 [4:0] $end
$var wire 1 ? write $end
$var wire 32 X# wrData [31:0] $end
$var integer 32 Y# k [31:0] $end
$upscope $end
$scope module readdatamux1 $end
$var wire 32 Z# a [31:0] $end
$var wire 32 [# b [31:0] $end
$var wire 32 \# c [31:0] $end
$var wire 32 ]# d [31:0] $end
$var wire 3 ^# sel [2:0] $end
$var wire 32 _# z [31:0] $end
$var wire 32 `# y [31:0] $end
$var wire 32 a# x [31:0] $end
$var wire 32 b# out [31:0] $end
$var wire 32 c# e [31:0] $end
$scope module ab $end
$var wire 32 d# a [31:0] $end
$var wire 32 e# b [31:0] $end
$var wire 1 f# s $end
$var wire 32 g# out [31:0] $end
$var parameter 32 h# N $end
$upscope $end
$scope module abcd $end
$var wire 32 i# a [31:0] $end
$var wire 1 j# s $end
$var wire 32 k# out [31:0] $end
$var wire 32 l# b [31:0] $end
$var parameter 32 m# N $end
$upscope $end
$scope module abcde $end
$var wire 32 n# a [31:0] $end
$var wire 1 o# s $end
$var wire 32 p# out [31:0] $end
$var wire 32 q# b [31:0] $end
$var parameter 32 r# N $end
$upscope $end
$scope module cd $end
$var wire 32 s# a [31:0] $end
$var wire 32 t# b [31:0] $end
$var wire 1 u# s $end
$var wire 32 v# out [31:0] $end
$var parameter 32 w# N $end
$upscope $end
$upscope $end
$scope module readdatamux2 $end
$var wire 32 x# a [31:0] $end
$var wire 32 y# b [31:0] $end
$var wire 32 z# c [31:0] $end
$var wire 32 {# d [31:0] $end
$var wire 3 |# sel [2:0] $end
$var wire 32 }# z [31:0] $end
$var wire 32 ~# y [31:0] $end
$var wire 32 !$ x [31:0] $end
$var wire 32 "$ out [31:0] $end
$var wire 32 #$ e [31:0] $end
$scope module ab $end
$var wire 32 $$ a [31:0] $end
$var wire 32 %$ b [31:0] $end
$var wire 1 &$ s $end
$var wire 32 '$ out [31:0] $end
$var parameter 32 ($ N $end
$upscope $end
$scope module abcd $end
$var wire 32 )$ a [31:0] $end
$var wire 1 *$ s $end
$var wire 32 +$ out [31:0] $end
$var wire 32 ,$ b [31:0] $end
$var parameter 32 -$ N $end
$upscope $end
$scope module abcde $end
$var wire 32 .$ a [31:0] $end
$var wire 1 /$ s $end
$var wire 32 0$ out [31:0] $end
$var wire 32 1$ b [31:0] $end
$var parameter 32 2$ N $end
$upscope $end
$scope module cd $end
$var wire 32 3$ a [31:0] $end
$var wire 32 4$ b [31:0] $end
$var wire 1 5$ s $end
$var wire 32 6$ out [31:0] $end
$var parameter 32 7$ N $end
$upscope $end
$upscope $end
$scope module stallunit $end
$var wire 1 U id_ex_readdmem $end
$var wire 5 8$ id_ex_rt [4:0] $end
$var wire 5 9$ rs [4:0] $end
$var wire 5 :$ rt [4:0] $end
$var wire 1 ) writedmem $end
$var wire 1 ;$ y $end
$var wire 1 <$ z $end
$var wire 1 =$ x $end
$var wire 1 + stall $end
$var wire 1 ; pc_write $end
$var wire 1 G if_id_write $end
$upscope $end
$scope module wbmux $end
$var wire 32 >$ a [31:0] $end
$var wire 32 ?$ b [31:0] $end
$var wire 1 B s $end
$var wire 32 @$ out [31:0] $end
$var parameter 32 A$ N $end
$upscope $end
$upscope $end
$upscope $end
$enddefinitions $end
$comment Show the parameter values. $end
$dumpall
b100000 A$
b100000 7$
b100000 2$
b100000 -$
b100000 ($
b100000 w#
b100000 r#
b100000 m#
b100000 h#
b100000 Q#
b100000 L#
b100000 H#
b100000 D#
b101 (#
b100000 u"
b100000 g"
b100000 c"
b101 _"
b1 \"
b1 Z"
b100000 W"
b100000 T"
b1 R"
b101 P"
b101 L"
b101 H"
b100000 D"
b100000 @"
b100000 <"
b1 9"
b1 7"
b1 5"
b1 3"
b1 1"
b1 /"
b100 ,"
b1 )"
b100000 &"
b100000 ""
b101 |
b1 y
b1 w
b1 u
b1 s
$end
#0
$dumpvars
bx @$
bx ?$
bx >$
x=$
x<$
x;$
bx :$
bx 9$
bx 8$
bx 6$
x5$
bx 4$
bx 3$
bx 1$
bx 0$
x/$
bx .$
bx ,$
bx +$
x*$
bx )$
bx '$
x&$
bx %$
bx $$
bx #$
bx "$
bx !$
bx ~#
bx }#
bx |#
bx {#
bx z#
bx y#
bx x#
bx v#
xu#
bx t#
bx s#
bx q#
bx p#
xo#
bx n#
bx l#
bx k#
xj#
bx i#
bx g#
xf#
bx e#
bx d#
bx c#
bx b#
bx a#
bx `#
bx _#
bx ^#
bx ]#
bx \#
bx [#
bx Z#
bx Y#
bx X#
bx W#
bx V#
bx U#
bx T#
bx S#
bx R#
bx P#
bx O#
bx00 N#
bx M#
bx00 K#
bx00 J#
bx00 I#
bx G#
bx F#
bx E#
bx C#
bx B#
bx A#
x@#
x?#
bx >#
bx =#
bx <#
1;#
bx :#
bx 9#
bx 8#
bx 7#
bx 6#
bx 5#
bx 4#
bx 3#
bx 2#
bx 1#
b0 0#
b0 /#
bx .#
bx -#
bx ,#
bx +#
bx *#
bx )#
bx '#
bx &#
bx %#
b0 $#
b0 ##
0"#
bx !#
bx ~"
bx }"
bx |"
bx {"
xz"
xy"
xx"
xw"
bx v"
bx t"
bx s"
bx r"
bx q"
bx p"
bx o"
bx n"
bx m"
1l"
bx k"
bx j"
b100 i"
bx h"
bx f"
1e"
bx d"
1b"
bx a"
bx `"
1^"
bx ]"
1["
1Y"
bx X"
bx V"
bx U"
bx S"
bx Q"
1O"
bx N"
bx M"
1K"
bx J"
bx I"
1G"
bx F"
bx E"
bx C"
1B"
bx A"
bx ?"
1>"
bx ="
bx ;"
1:"
18"
16"
14"
12"
10"
1."
bx -"
b0 +"
1*"
1("
bx '"
bx %"
1$"
bx #"
bx !"
1~
bx }
bx {
1z
1x
1v
1t
1r
bx q
bx p
b0 o
bx n
0m
xl
bx k
bx j
xi
xh
xg
bx f
bx e
xd
xc
bx b
bx a
bx `
x_
b0 ^
0]
bx \
x[
bx Z
xY
bx X
bx W
bx V
xU
xT
xS
bx R
bx Q
xP
0O
0N
0M
0L
0K
xJ
bx I
bx H
xG
bx F
bx E
0D
bx C
xB
bx A
bx @
x?
0>
bx00 =
x<
x;
bx :
bx 9
bx 8
bx 7
06
bx 5
bx 4
bx 3
02
bx 1
00
0/
bx .
bx -
bx ,
x+
bx *
0)
x(
x'
0&
x%
bx $
1#
1"
0!
$end
#1
0l
0w"
1z"
0y"
0x"
b0 p
b0 C"
b0 {"
b0 }"
b0 "$
b0 0$
b0 q
b0 ?"
b0 |"
b0 ~"
b0 b#
b0 p#
b0 }#
b0 +$
b0 .$
b0 _#
b0 k#
b0 n#
b0 !$
b0 '$
b0 )$
b0 a#
b0 g#
b0 i#
0&$
05$
0*$
0/$
0f#
0u#
0j#
0o#
b0 `
b0 4#
b0 9#
b0 |#
b0 a
b0 3#
b0 8#
b0 ^#
0%
b0 :
b0 G#
b0 O#
1G
1;
0+
b0 =
b0 K#
b0 N#
b0 `#
b0 l#
b0 v#
b0 ~#
b0 ,$
b0 6$
b0 I#
1;$
1(
b0 .
b0 !"
b0 o"
b0 ]#
b0 t#
b0 {#
b0 4$
b0 q"
0<$
b0 9
b0 F#
b0 P#
b0 v"
b0 J#
b0 F
b0 ;"
b0 .#
b0 -#
b0 3
b0 F"
b0 4
b0 U#
b0 x#
b0 $$
b0 ,
b0 N"
b0 7#
b0 W#
b0 :$
b0 5
b0 T#
b0 Z#
b0 d#
b0 -
b0 J"
b0 6#
b0 V#
b0 9$
b0 n
b0 p"
b0 t"
b0 k
b0 {
b0 '#
b0 1#
0_
b0 b
b0 +#
b0 C#
0?#
b0 *
b0 X#
b0 c#
b0 q#
b0 #$
b0 1$
b0 @$
b0 H
b0 X"
b0 E#
b0 M#
b0 I
b0 U"
b0 !#
0J
b0 $
b0 n"
b0 X
b0 A"
b0 W
b0 %"
b0 E"
b0 r"
b0 Z
b0 ="
b0 s"
b0 R
b0 M"
b0 Q
b0 Q"
b0 %#
b0 8$
b0 V
b0 I"
b0 &#
0[
b0 \
b0 -"
b0 m"
0T
0=$
0U
0P
0S
0Y
b0 f
b0 #"
b0 a"
b0 )#
b0 \#
b0 s#
b0 z#
b0 3$
0c
b0 e
b0 '"
b0 A#
1@#
b0 j
b0 }
b0 ]"
b0 2#
b0 =#
0h
0d
0g
0i
b0 A
b0 d"
b0 >$
b0 @
b0 h"
b0 B#
b0 ?$
b0 C
b0 `"
b0 5#
b0 >#
b0 S#
0?
0B
#5
b100000 Y#
b10000000000 ,#
0"
1!
#6
b0 :#
b100 7
b100 V"
b100 j"
b0 8
b0 k"
b0 R#
#10
1"
0!
#15
1'
b1000000000000010000000001100100 E
b1000000000000010000000001100100 S"
b1000000000000010000000001100100 <#
1<
0"
1!
0#
#16
b110010000 =
b110010000 K#
b110010000 N#
b110010000 I#
b100 9
b100 F#
b100 P#
b1000000000110010000 J#
b1100100 F
b1100100 ;"
b1100100 .#
b1100100 -#
b1 ,
b1 N"
b1 7#
b1 W#
b1 :$
b110010100 :
b110010100 G#
b110010100 O#
b100 H
b100 X"
b100 E#
b100 M#
b1000000000000010000000001100100 I
b1000000000000010000000001100100 U"
b1000000000000010000000001100100 !#
1c
bx @
bx h"
bx B#
bx ?$
#20
1"
0!
#21
b1 k
b1 {
b1 '#
b1 1#
b1 Q
b1 Q"
b1 %#
b1 8$
b1100100 Z
b1100100 ="
b1100100 s"
#22
1]
1L
1m
1/
b100000001000 $#
#25
0"
1!
#26
b1101000000000100000000000000000 E
b1101000000000100000000000000000 S"
b1101000000000100000000000000000 <#
b1 :#
b1000 7
b1000 V"
b1000 j"
b100 8
b100 k"
b100 R#
#30
1"
0!
#31
b0 `
b0 4#
b0 9#
b0 |#
1l
b0 =
b0 K#
b0 N#
b0 I#
0;$
0(
b1100100 .
b1100100 !"
b1100100 o"
b1100100 ]#
b1100100 t#
b1100100 {#
b1100100 4$
b1100100 q"
b1000 9
b1000 F#
b1000 P#
b10 v"
b10000000000000000000 J#
b0 F
b0 ;"
b0 .#
b0 -#
b10 ,
b10 N"
b10 7#
b10 W#
b10 :$
b1100100 n
b1100100 p"
b1100100 t"
b1000 :
b1000 G#
b1000 O#
b1000 H
b1000 X"
b1000 E#
b1000 M#
b1101000000000100000000000000000 I
b1101000000000100000000000000000 U"
b1101000000000100000000000000000 !#
1[
1S
0@#
b1 j
b1 }
b1 ]"
b1 2#
b1 =#
#35
0"
1!
#36
b1101000000000110000000000000000 E
b1101000000000110000000000000000 S"
b1101000000000110000000000000000 <#
b10 :#
b1100 7
b1100 V"
b1100 j"
b1000 8
b1000 k"
b1000 R#
#40
1"
0!
#41
1(
b0 .
b0 !"
b0 o"
b0 ]#
b0 t#
b0 {#
b0 4$
b0 q"
b1100100 `#
b1100100 l#
b1100100 v#
b1100100 ~#
b1100100 ,$
b1100100 6$
b10 k
b10 {
b10 '#
b10 1#
b0 n
b0 p"
b0 t"
b11000000000000000000 J#
b11 ,
b11 N"
b11 7#
b11 W#
b11 :$
b1100 9
b1100 F#
b1100 P#
1@#
b1 C
b1 `"
b1 5#
b1 >#
b1 S#
1g
0c
b1100100 f
b1100100 #"
b1100100 a"
b1100100 )#
b1100100 \#
b1100100 s#
b1100100 z#
b1100100 3$
b10 Q
b10 Q"
b10 %#
b10 8$
b0 Z
b0 ="
b0 s"
b1101000000000110000000000000000 I
b1101000000000110000000000000000 U"
b1101000000000110000000000000000 !#
b1100 :
b1100 G#
b1100 O#
b1100 H
b1100 X"
b1100 E#
b1100 M#
#45
0"
1!
#46
b1000000000001000000000000001010 E
b1000000000001000000000000001010 S"
b1000000000001000000000000001010 <#
b11 :#
b10000 7
b10000 V"
b10000 j"
b1100 8
b1100 k"
b1100 R#
#50
1"
0!
#51
0l
b101000 =
b101000 K#
b101000 N#
b101000 I#
b10000 9
b10000 F#
b10000 P#
b0 v"
b100000000000000101000 J#
b1010 F
b1010 ;"
b1010 .#
b1010 -#
b100 ,
b100 N"
b100 7#
b100 W#
b100 :$
b11 k
b11 {
b11 '#
b11 1#
0;$
b0 `#
b0 l#
b0 v#
b0 ~#
b0 ,$
b0 6$
b1100100 *
b1100100 X#
b1100100 c#
b1100100 q#
b1100100 #$
b1100100 1$
b1100100 @$
b111000 :
b111000 G#
b111000 O#
b10000 H
b10000 X"
b10000 E#
b10000 M#
b1000000000001000000000000001010 I
b1000000000001000000000000001010 U"
b1000000000001000000000000001010 !#
b11 Q
b11 Q"
b11 %#
b11 8$
b0 f
b0 #"
b0 a"
b0 )#
b0 \#
b0 s#
b0 z#
b0 3$
1c
0@#
b10 j
b10 }
b10 ]"
b10 2#
b10 =#
b1100100 A
b1100100 d"
b1100100 >$
1?
#55
0"
1!
#56
b1000000000001010000000000001010 E
b1000000000001010000000000001010 S"
b1000000000001010000000000001010 <#
b100 :#
b10100 7
b10100 V"
b10100 j"
b10000 8
b10000 k"
b10000 R#
#60
1"
0!
#61
0(
b1010 .
b1010 !"
b1010 o"
b1010 ]#
b1010 t#
b1010 {#
b1010 4$
b1010 q"
b0 *
b0 X#
b0 c#
b0 q#
b0 #$
b0 1$
b0 @$
b100 k
b100 {
b100 '#
b100 1#
b1010 n
b1010 p"
b1010 t"
b101000000000000101000 J#
b101 ,
b101 N"
b101 7#
b101 W#
b101 :$
b10100 9
b10100 F#
b10100 P#
b10 C
b10 `"
b10 5#
b10 >#
b10 S#
b0 A
b0 d"
b0 >$
b11 j
b11 }
b11 ]"
b11 2#
b11 =#
b100 Q
b100 Q"
b100 %#
b100 8$
b1010 Z
b1010 ="
b1010 s"
b1000000000001010000000000001010 I
b1000000000001010000000000001010 U"
b1000000000001010000000000001010 !#
b111100 :
b111100 G#
b111100 O#
b10100 H
b10100 X"
b10100 E#
b10100 M#
#65
0"
1!
#66
b1101000001001100000000000000000 E
b1101000001001100000000000000000 S"
b1101000001001100000000000000000 <#
b101 :#
b11000 7
b11000 V"
b11000 j"
b10100 8
b10100 k"
b10100 R#
#70
1"
0!
