KGP-RISC-Processor/test.vcd
$date
	Sun Oct 29 19:00:07 2023
$end
$version
	Icarus Verilog
$end
$timescale
	1s
$end
$scope module mips_tb $end
$var wire 32 ! writedata [31:0] $end
$var reg 1 " clk $end
$var reg 1 # reset $end
$scope module dut $end
$var wire 1 " clk $end
$var wire 1 # reset $end
$var wire 1 $ writedmem $end
$var wire 32 % writedata [31:0] $end
$var wire 1 & selwb $end
$var wire 1 ' seldest $end
$var wire 1 ( regwrite $end
$var wire 1 ) readim $end
$var wire 1 * readdmem $end
$var wire 2 + opcond [1:0] $end
$var wire 1 , ldpc $end
$var wire 1 - ldnpc $end
$var wire 1 . ldlmd $end
$var wire 1 / ldir $end
$var wire 1 0 ldimm $end
$var wire 1 1 ldaluout $end
$var wire 1 2 ldB $end
$var wire 1 3 ldA $end
$var wire 32 4 irout [31:0] $end
$var wire 1 5 branch $end
$var wire 1 6 alusel2 $end
$var wire 1 7 alusel1 $end
$var wire 32 8 aluout [31:0] $end
$var wire 4 9 alufunc [3:0] $end
$var wire 1 : aluen $end
$scope module ctrl $end
$var wire 1 " clk $end
$var wire 1 # reset $end
$var wire 1 $ writedmem $end
$var wire 1 & selwb $end
$var wire 1 ' seldest $end
$var wire 1 ( regwrite $end
$var wire 1 ) readim $end
$var wire 1 * readdmem $end
$var wire 2 ; opcond [1:0] $end
$var wire 1 , ldpc $end
$var wire 1 - ldnpc $end
$var wire 1 . ldlmd $end
$var wire 1 / ldir $end
$var wire 1 0 ldimm $end
$var wire 1 1 ldaluout $end
$var wire 1 2 ldB $end
$var wire 1 3 ldA $end
$var wire 32 < irout [31:0] $end
$var wire 1 5 branch $end
$var wire 1 6 alusel2 $end
$var wire 1 7 alusel1 $end
$var wire 4 = alufunc [3:0] $end
$var wire 1 : aluen $end
$var parameter 3 > EX $end
$var parameter 3 ? HLT $end
$var parameter 3 @ ID $end
$var parameter 3 A IF $end
$var parameter 3 B MEM $end
$var parameter 3 C WB $end
$var reg 24 D control_signals [23:0] $end
$var reg 3 E state [2:0] $end
$upscope $end
$scope module dpath $end
$var wire 1 : aluen $end
$var wire 4 F alufunc [3:0] $end
$var wire 1 7 alusel1 $end
$var wire 1 6 alusel2 $end
$var wire 1 5 branch $end
$var wire 1 " clk $end
$var wire 1 3 ldA $end
$var wire 1 2 ldB $end
$var wire 1 1 ldaluout $end
$var wire 1 0 ldimm $end
$var wire 1 / ldir $end
$var wire 1 . ldlmd $end
$var wire 1 - ldnpc $end
$var wire 1 , ldpc $end
$var wire 2 G opcond [1:0] $end
$var wire 1 * readdmem $end
$var wire 1 ) readim $end
$var wire 1 ( regwrite $end
$var wire 1 # reset $end
$var wire 1 ' seldest $end
$var wire 1 & selwb $end
$var wire 1 $ writedmem $end
$var wire 32 H writedata [31:0] $end
$var wire 1 I selmem $end
$var wire 32 J result [31:0] $end
$var wire 32 K pcplus4 [31:0] $end
$var wire 32 L pcout [31:0] $end
$var wire 32 M pcnext [31:0] $end
$var wire 32 N pcbranch [31:0] $end
$var wire 32 O npcout [31:0] $end
$var wire 32 P memmuxout [31:0] $end
$var wire 32 Q lmdout [31:0] $end
$var wire 32 R irout [31:0] $end
$var wire 32 S instr [31:0] $end
$var wire 32 T immout [31:0] $end
$var wire 32 U imm [31:0] $end
$var wire 32 V dmemout [31:0] $end
$var wire 32 W destadd [31:0] $end
$var wire 32 X aluout [31:0] $end
$var wire 32 Y aluin2 [31:0] $end
$var wire 32 Z aluin1 [31:0] $end
$var wire 32 [ Bout [31:0] $end
$var wire 32 \ Bin [31:0] $end
$var wire 32 ] Aout [31:0] $end
$var wire 32 ^ Ain [31:0] $end
$scope module A $end
$var wire 1 " clk $end
$var wire 1 3 ld $end
$var wire 1 # reset $end
$var wire 32 _ din [31:0] $end
$var reg 32 ` dout [31:0] $end
$upscope $end
$scope module B $end
$var wire 1 " clk $end
$var wire 1 2 ld $end
$var wire 1 # reset $end
$var wire 32 a din [31:0] $end
$var reg 32 b dout [31:0] $end
$upscope $end
$scope module addpc $end
$var wire 32 c b [31:0] $end
$var wire 32 d out [31:0] $end
$var wire 32 e a [31:0] $end
$upscope $end
$scope module alu $end
$var wire 1 : en $end
$var wire 4 f mode [3:0] $end
$var wire 32 g out [31:0] $end
$var wire 32 h operand2 [31:0] $end
$var wire 32 i operand1 [31:0] $end
$var reg 32 j ALUout [31:0] $end
$upscope $end
$scope module aluoutreg $end
$var wire 1 " clk $end
$var wire 32 k din [31:0] $end
$var wire 1 1 ld $end
$var wire 1 # reset $end
$var reg 32 l dout [31:0] $end
$upscope $end
$scope module bradd $end
$var wire 32 m b [31:0] $end
$var wire 32 n out [31:0] $end
$var wire 32 o a [31:0] $end
$upscope $end
$scope module cond $end
$var wire 32 p a [31:0] $end
$var wire 2 q opcond [1:0] $end
$var wire 1 I y $end
$var wire 1 r lt $end
$var wire 1 s gt $end
$var wire 1 t eq $end
$scope module cmp $end
$var wire 32 u data1 [31:0] $end
$var wire 32 v data2 [31:0] $end
$var wire 1 r lt $end
$var wire 1 s gt $end
$var wire 1 t eq $end
$upscope $end
$upscope $end
$scope module destmux $end
$var wire 32 w a [31:0] $end
$var wire 32 x b [31:0] $end
$var wire 1 ' s $end
$var wire 32 y out [31:0] $end
$var parameter 32 z N $end
$upscope $end
$scope module dmem $end
$var wire 32 { addr [31:0] $end
$var wire 1 " clk $end
$var wire 32 | din [31:0] $end
$var wire 1 * read $end
$var wire 1 # reset $end
$var wire 1 $ write $end
$var wire 32 } dout [31:0] $end
$var integer 32 ~ k [31:0] $end
$upscope $end
$scope module ext $end
$var wire 16 !" a [15:0] $end
$var wire 32 "" y [31:0] $end
$upscope $end
$scope module imem $end
$var wire 6 #" addr [5:0] $end
$var wire 1 ) read $end
$var wire 32 $" I [31:0] $end
$upscope $end
$scope module immreg $end
$var wire 1 " clk $end
$var wire 32 %" din [31:0] $end
$var wire 1 0 ld $end
$var wire 1 # reset $end
$var reg 32 &" dout [31:0] $end
$upscope $end
$scope module irreg $end
$var wire 1 " clk $end
$var wire 32 '" din [31:0] $end
$var wire 1 / ld $end
$var wire 1 # reset $end
$var reg 32 (" dout [31:0] $end
$upscope $end
$scope module lmdreg $end
$var wire 1 " clk $end
$var wire 32 )" din [31:0] $end
$var wire 1 . ld $end
$var wire 1 # reset $end
$var reg 32 *" dout [31:0] $end
$upscope $end
$scope module memmux $end
$var wire 32 +" b [31:0] $end
$var wire 1 I s $end
$var wire 32 ," out [31:0] $end
$var wire 32 -" a [31:0] $end
$var parameter 32 ." N $end
$upscope $end
$scope module muxalu1 $end
$var wire 32 /" b [31:0] $end
$var wire 1 7 s $end
$var wire 32 0" out [31:0] $end
$var wire 32 1" a [31:0] $end
$var parameter 32 2" N $end
$upscope $end
$scope module muxalu2 $end
$var wire 32 3" a [31:0] $end
$var wire 32 4" b [31:0] $end
$var wire 1 6 s $end
$var wire 32 5" out [31:0] $end
$var parameter 32 6" N $end
$upscope $end
$scope module muxbr $end
$var wire 32 7" a [31:0] $end
$var wire 32 8" b [31:0] $end
$var wire 1 5 s $end
$var wire 32 9" out [31:0] $end
$var parameter 32 :" N $end
$upscope $end
$scope module npcreg $end
$var wire 1 " clk $end
$var wire 32 ;" din [31:0] $end
$var wire 1 - ld $end
$var wire 1 # reset $end
$var reg 32 <" dout [31:0] $end
$upscope $end
$scope module pcreg $end
$var wire 1 " clk $end
$var wire 32 =" din [31:0] $end
$var wire 1 , ld $end
$var wire 1 # reset $end
$var reg 32 >" dout [31:0] $end
$upscope $end
$scope module rbank $end
$var wire 1 " clk $end
$var wire 5 ?" dr [4:0] $end
$var wire 32 @" rData1 [31:0] $end
$var wire 32 A" rData2 [31:0] $end
$var wire 1 # reset $end
$var wire 5 B" sr1 [4:0] $end
$var wire 5 C" sr2 [4:0] $end
$var wire 1 ( write $end
$var wire 32 D" wrData [31:0] $end
$var integer 32 E" k [31:0] $end
$upscope $end
$scope module wbmux $end
$var wire 32 F" a [31:0] $end
$var wire 32 G" b [31:0] $end
$var wire 1 & s $end
$var wire 32 H" out [31:0] $end
$var parameter 32 I" N $end
$upscope $end
$upscope $end
$upscope $end
$upscope $end
$enddefinitions $end
$comment Show the parameter values. $end
$dumpall
b100000 I"
b100000 :"
b100000 6"
b100000 2"
b100000 ."
b100000 z
b100 C
b11 B
b0 A
b1 @
b101 ?
b10 >
$end
#0
$dumpvars
bx H"
bx G"
bx F"
bx E"
bx D"
bx C"
bx B"
bx A"
bx @"
bx ?"
bx >"
bx ="
bx <"
bx ;"
bx 9"
bx 8"
bx 7"
bx 5"
bx 4"
bx 3"
bx 1"
bx 0"
bx /"
bx -"
bx ,"
bx +"
bx *"
bx )"
bx ("
bx '"
bx &"
bx %"
bx $"
bx #"
bx ""
bx !"
bx ~
bx }
bx |
bx {
b0xxxxx y
b0xxxxx x
b0xxxxx w
b0 v
bx u
xt
xs
xr
bx q
bx p
bx o
bx n
bx00 m
bx l
bx k
bx j
bx i
bx h
bx g
bx f
bx e
bx d
b100 c
bx b
bx a
bx `
bx _
bx ^
bx ]
bx \
bx [
bx Z
bx Y
bx X
b0xxxxx W
bx V
bx U
bx T
bx S
bx R
bx Q
bx P
bx O
bx N
bx M
bx L
bx K
bx J
xI
bx H
bx G
bx F
bx E
bx D
bx =
bx <
bx ;
x:
bx 9
bx 8
x7
x6
x5
bx 4
x3
x2
x1
x0
x/
x.
x-
x,
bx +
x*
x)
x(
x'
x&
bx %
x$
1#
0"
bx !
$end
#5
0I
b0 ?"
b0 W
b0 y
b0 M
b0 9"
b0 ="
0)
0/
0-
03
02
00
b0 +
b0 ;
b0 G
b0 q
07
06
0:
01
b0 9
b0 =
b0 F
b0 f
0'
0(
0$
0*
0.
0&
05
0,
b0 #"
b0 \
b0 a
b0 A"
b0 C"
b0 ^
b0 _
b0 @"
b0 B"
b0 x
b0 w
b0 N
b0 n
b0 8"
b0 m
b0 Z
b0 i
b0 0"
b0 Y
b0 h
b0 5"
b0 P
b0 ,"
b0 7"
b0 !
b0 %
b0 H
b0 D"
b0 H"
b0 D
b100 K
b100 d
b100 ;"
b0 L
b0 e
b0 >"
b0 4
b0 <
b0 R
b0 ("
b0 O
b0 o
b0 -"
b0 1"
b0 <"
0r
0s
1t
b0 ]
b0 `
b0 p
b0 u
b0 /"
b0 [
b0 b
b0 |
b0 3"
b0 T
b0 &"
b0 4"
b0 8
b0 X
b0 l
b0 {
b0 +"
b0 G"
b0 Q
b0 *"
b0 F"
b100000 E"
b10000000000 ~
1"
#10
0"
#15
b0 E
1"
0#
#20
0"
#25
1"
#26
b1100100 U
b1100100 ""
b1100100 %"
b1100100 !"
b1000000000000010000000001100100 S
b1000000000000010000000001100100 $"
b1000000000000010000000001100100 '"
1)
1/
1-
b1 E
b111000000000000000000000 D
#30
0"
#35
b100 M
b100 9"
b100 ="
b100 Z
b100 i
b100 0"
b100 P
b100 ,"
b100 7"
b1 C"
b1 x
b1000000000110010000 m
b1000000000110010100 N
b1000000000110010100 n
b1000000000110010100 8"
b100 O
b100 o
b100 -"
b100 1"
b100 <"
b1000000000000010000000001100100 4
b1000000000000010000000001100100 <
b1000000000000010000000001100100 R
b1000000000000010000000001100100 ("
1"
#36
13
12
10
b10 E
b111111000000000000000000 D
#40
0"
#45
b1100100 T
b1100100 &"
b1100100 4"
1"
#46
b0 Z
b0 i
b0 0"
b1100100 Y
b1100100 h
b1100100 5"
b1100100 J
b1100100 g
b1100100 k
b1100100 j
17
16
1:
b11 +
b11 ;
b11 G
b11 q
b111111111110000000000000 D
#48
11
b11 E
b111111111111000000000000 D
#50
0"
#55
b1100100 8
b1100100 X
b1100100 l
b1100100 {
b1100100 +"
b1100100 G"
1"
#56
1,
b100 E
b111111111111000000000001 D
#60
0"
#65
b0 U
b0 ""
b0 %"
b0 !"
b1101000000000100000000000000000 S
b1101000000000100000000000000000 $"
b1101000000000100000000000000000 '"
b1 #"
b1000 K
b1000 d
b1000 ;"
b100 L
b100 e
b100 >"
1"
#66
b1 ?"
b1 W
b1 y
b1100100 !
b1100100 %
b1100100 H
b1100100 D"
b1100100 H"
1'
1(
1&
b0 E
b111111111111000011000101 D
#70
0"
#75
b10 ?"
b0 J
b0 g
b0 k
b0 j
b1000 M
b1000 9"
b1000 ="
b10 W
b10 y
b0 Y
b0 h
b0 5"
b1000 P
b1000 ,"
b1000 7"
b10 C"
b10 x
b10000000000000000000 m
b0 T
b0 &"
b0 4"
b0 \
b0 a
b0 A"
b10000000000000001000 N
b10000000000000001000 n
b10000000000000001000 8"
b1000 O
b1000 o
b1000 -"
b1000 1"
b1000 <"
b1101000000000100000000000000000 4
b1101000000000100000000000000000 <
b1101000000000100000000000000000 R
b1101000000000100000000000000000 ("
1"
#76
b0 ?"
b1000 Z
b1000 i
b1000 0"
b0 W
b0 y
b0 !
b0 %
b0 H
b0 D"
b0 H"
03
02
00
b0 +
b0 ;
b0 G
b0 q
07
06
0:
01
0'
0(
0&
0,
b1 E
b111000000000000000000000 D
#80
0"
#85
1"
#86
13
12
10
b10 E
b111111000000000000000000 D
#90
0"
#95
1"
#96
b0 Z
b0 i
b0 0"
b0 J
b0 g
b0 k
b0 j
17
16
1:
b11 +
b11 ;
b11 G
b11 q
b111111111110000000000000 D
#98
11
b11 E
b111111111111000000000000 D
#100
0"
#105
b0 8
b0 X
b0 l
b0 {
b0 +"
b0 G"
1"
#106
1,
b100 E
b111111111111000000000001 D
#110
0"
#115
b1101000000000110000000000000000 S
b1101000000000110000000000000000 $"
b1101000000000110000000000000000 '"
b10 #"
b1100 K
b1100 d
b1100 ;"
b1000 L
b1000 e
b1000 >"
1"
#116
b10 ?"
b10 W
b10 y
1'
1(
1&
b0 E
b111111111111000011000101 D
#120
0"
#125
b11 ?"
b11 W
b11 y
b1100 M
b1100 9"
b1100 ="
b11 C"
b11 x
b11000000000000000000 m
b1100 P
b1100 ,"
b1100 7"
b1101000000000110000000000000000 4
b1101000000000110000000000000000 <
b1101000000000110000000000000000 R
b1101000000000110000000000000000 ("
b11000000000000001100 N
b11000000000000001100 n
b11000000000000001100 8"
b1100 O
b1100 o
b1100 -"
b1100 1"
b1100 <"
1"
#126
b0 ?"
b1100 Z
b1100 i
b1100 0"
b0 W
b0 y
03
02
00
b0 +
b0 ;
b0 G
b0 q
07
06
0:
01
0'
0(
0&
0,
b1 E
b111000000000000000000000 D
#130
0"
#135
1"
#136
13
12
10
b10 E
b111111000000000000000000 D
#140
0"
#145
1"
#146
b0 Z
b0 i
b0 0"
b0 J
b0 g
b0 k
b0 j
17
16
1:
b11 +
b11 ;
b11 G
b11 q
b111111111110000000000000 D
#148
11
b11 E
b111111111111000000000000 D
#150
0"
#155
1"
#156
1,
b100 E
b111111111111000000000001 D
#160
0"
#165
b1010 U
b1010 ""
b1010 %"
b1010 !"
b1000000000001000000000000001010 S
b1000000000001000000000000001010 $"
b1000000000001000000000000001010 '"
b11 #"
b10000 K
b10000 d
b10000 ;"
b1100 L
b1100 e
b1100 >"
1"
#166
b11 ?"
b11 W
b11 y
1'
1(
1&
b0 E
b111111111111000011000101 D
#170
0"
#175
b100 ?"
b1010 J
b1010 g
b1010 k
b1010 j
b10000 M
b10000 9"
b10000 ="
b100 W
b100 y
b1010 Y
b1010 h
b1010 5"
b10000 P
b10000 ,"
b10000 7"
b100 C"
b100 x
b100000000000000101000 m
b1010 T
b1010 &"
b1010 4"
b100000000000000111000 N
b100000000000000111000 n
b100000000000000111000 8"
b10000 O
b10000 o
b10000 -"
b10000 1"
b10000 <"
b1000000000001000000000000001010 4
b1000000000001000000000000001010 <
b1000000000001000000000000001010 R
b1000000000001000000000000001010 ("
1"
#176
b0 ?"
b10000 Z
b10000 i
b10000 0"
b0 Y
b0 h
b0 5"
b0 W
b0 y
03
02
00
b0 +
b0 ;
b0 G
b0 q
07
06
0:
01
0'
0(
0&
0,
b1 E
b111000000000000000000000 D
#180
0"
#185
1"
#186
13
12
10
b10 E
b111111000000000000000000 D
#190
0"
#195
1"
#196
b0 Z
b0 i
b0 0"
b1010 Y
b1010 h
b1010 5"
b1010 J
b1010 g
b1010 k
b1010 j
17
16
1:
b11 +
b11 ;
b11 G
b11 q
b111111111110000000000000 D
#198
11
b11 E
b111111111111000000000000 D
#200
0"
#205
b1010 8
b1010 X
b1010 l
b1010 {
b1010 +"
b1010 G"
1"
#206
1,
b100 E
b111111111111000000000001 D
#210
0"
#215
b1000000000001010000000000001010 S
b1000000000001010000000000001010 $"
b1000000000001010000000000001010 '"
b100 #"
b10100 K
b10100 d
b10100 ;"
b10000 L
b10000 e
b10000 >"
1"
#216
b100 ?"
b100 W
b100 y
b1010 !
b1010 %
b1010 H
b1010 D"
b1010 H"
1'
1(
1&
b0 E
b111111111111000011000101 D
#220
0"
#225
b101 ?"
b101 W
b101 y
b10100 M
b10100 9"
b10100 ="
b101 C"
b101 x
b101000000000000101000 m
b10100 P
b10100 ,"
b10100 7"
b1000000000001010000000000001010 4
b1000000000001010000000000001010 <
b1000000000001010000000000001010 R
b1000000000001010000000000001010 ("
b101000000000000111100 N
b101000000000000111100 n
b101000000000000111100 8"
b10100 O
b10100 o
b10100 -"
b10100 1"
b10100 <"
b0 \
b0 a
b0 A"
1"
#226
b0 ?"
b10100 Z
b10100 i
b10100 0"
b0 Y
b0 h
b0 5"
b0 W
b0 y
b0 !
b0 %
b0 H
b0 D"
b0 H"
03
02
00
b0 +
b0 ;
b0 G
b0 q
07
06
0:
01
0'
0(
0&
0,
b1 E
b111000000000000000000000 D
#230
0"
#235
1"
#236
13
12
10
b10 E
b111111000000000000000000 D
#240
0"
#245
1"
#246
b0 Z
b0 i
b0 0"
b1010 Y
b1010 h
b1010 5"
b1010 J
b1010 g
b1010 k
b1010 j
17
16
1:
b11 +
b11 ;
b11 G
b11 q
b111111111110000000000000 D
#248
11
b11 E
b111111111111000000000000 D
#250
0"
#255
1"
#256
1,
b100 E
b111111111111000000000001 D
#260
0"
#265
b0 U
b0 ""
b0 %"
b0 !"
b1101000001001100000000000000000 S
b1101000001001100000000000000000 $"
b1101000001001100000000000000000 '"
b101 #"
b11000 K
b11000 d
b11000 ;"
b10100 L
b10100 e
b10100 >"
1"
#266
b101 ?"
b101 W
b101 y
b1010 !
b1010 %
b1010 H
b1010 D"
b1010 H"
1'
1(
1&
b0 E
b111111111111000011000101 D
#270
0"
#275
b110 ?"
b0 J
b0 g
b0 k
b0 j
b11000 M
b11000 9"
b11000 ="
b110 W
b110 y
b0 Y
b0 h
b0 5"
b11000 P
b11000 ,"
b11000 7"
b110 C"
b1100100 ^
b1100100 _
b1100100 @"
b1 B"
b110 x
b100110000000000000000000 m
b0 T
b0 &"
b0 4"
b0 \
b0 a
b0 A"
b100110000000000000011000 N
b100110000000000000011000 n
b100110000000000000011000 8"
b11000 O
b11000 o
b11000 -"
b11000 1"
b11000 <"
b1101000001001100000000000000000 4
b1101000001001100000000000000000 <
b1101000001001100000000000000000 R
b1101000001001100000000000000000 ("
1"
#276
b0 ?"
b11000 Z
b11000 i
b11000 0"
b0 W
b0 y
b0 !
b0 %
b0 H
b0 D"
b0 H"
03
02
00
b0 +
b0 ;
b0 G
b0 q
07
06
0:
01
0'
0(
0&
0,
b1 E
b111000000000000000000000 D
#280
0"
#285
1"
#286
13
12
10
b10 E
b111111000000000000000000 D
#290
0"
#295
b1010 M
b1010 9"
b1010 ="
b1010 P
b1010 ,"
b1010 7"
1I
1s
0t
b1100100 ]
b1100100 `
b1100100 p
b1100100 u
b1100100 /"
1"
#296
b11000 M
b11000 9"
b11000 ="
b11000 P
b11000 ,"
b11000 7"
0I
b1100100 Z
b1100100 i
b1100100 0"
b1100100 J
b1100100 g
b1100100 k
b1100100 j
17
16
1:
b11 +
b11 ;
b11 G
b11 q
b111111111110000000000000 D
#298
11
b11 E
b111111111111000000000000 D
#300
0"
#305
b1100100 8
b1100100 X
b1100100 l
b1100100 {
b1100100 +"
b1100100 G"
1"
#306
1,
b100 E
b111111111111000000000001 D
#310
0"
#315
b1101000001001110000000000000000 S
b1101000001001110000000000000000 $"
b1101000001001110000000000000000 '"
b110 #"
b11100 K
b11100 d
b11100 ;"
b11000 L
b11000 e
b11000 >"
1"
#316
b110 ?"
b110 W
b110 y
b1100100 !
b1100100 %
b1100100 H
b1100100 D"
b1100100 H"
1'
1(
1&
b0 E
b111111111111000011000101 D
#320
0"
#325
b111 ?"
b111 W
b111 y
b11100 M
b11100 9"
b11100 ="
b111 C"
b111 x
b100111000000000000000000 m
b11100 P
b11100 ,"
b11100 7"
b1101000001001110000000000000000 4
b1101000001001110000000000000000 <
b1101000001001110000000000000000 R
b1101000001001110000000000000000 ("
b100111000000000000011100 N
b100111000000000000011100 n
b100111000000000000011100 8"
b11100 O
b11100 o
b11100 -"
b11100 1"
b11100 <"
b0 \
b0 a
b0 A"
1"
#326
b1100100 M
b1100100 9"
b1100100 ="
b1100100 P
b1100100 ,"
b1100100 7"
1I
b0 ?"
b11100 Z
b11100 i
b11100 0"
b0 W
b0 y
b0 !
b0 %
b0 H
b0 D"
b0 H"
03
02
00
b0 +
b0 ;
b0 G
b0 q
07
06
0:
01
0'
0(
0&
0,
b1 E
b111000000000000000000000 D
#330
0"
#335
1"
#336
13
12
10
b10 E
b111111000000000000000000 D
#340
0"
#345
1"
#346
b11100 M
b11100 9"
b11100 ="
b11100 P
b11100 ,"
b11100 7"
0I
b1100100 Z
b1100100 i
b1100100 0"
b1100100 J
b1100100 g
b1100100 k
b1100100 j
17
16
1:
b11 +
b11 ;
b11 G
b11 q
b111111111110000000000000 D
#348
11
b11 E
b111111111111000000000000 D
#350
0"
#355
1"
#356
1,
b100 E
b111111111111000000000001 D
#360
0"
#365
b1 U
b1 ""
b1 %"
b1 !"
b1000100100001000000000000000001 S
b1000100100001000000000000000001 $"
b1000100100001000000000000000001 '"
b111 #"
b100000 K
b100000 d
b100000 ;"
b11100 L
b11100 e
b11100 >"
1"
#366
b111 ?"
b111 W
b111 y
b1100100 !
b1100100 %
b1100100 H
b1100100 D"
b1100100 H"
1'
1(
1&
b0 E
b111111111111000011000101 D
#370
0"
#375
b100 ?"
b1100101 J
b1100101 g
b1100101 k
b1100101 j
b100000 M
b100000 9"
b100000 ="
b100 W
b100 y
b1 Y
b1 h
b1 5"
b100000 P
b100000 ,"
b100000 7"
b100 C"
b1010 ^
b1010 _
b1010 @"
b100 B"
b100 x
b10000100000000000000000100 m
b1 T
b1 &"
b1 4"
b1010 \
b1010 a
b1010 A"
b10000100000000000000100100 N
b10000100000000000000100100 n
b10000100000000000000100100 8"
b100000 O
b100000 o
b100000 -"
b100000 1"
b100000 <"
b1000100100001000000000000000001 4
b1000100100001000000000000000001 <
b1000100100001000000000000000001 R
b1000100100001000000000000000001 ("
1"
#376
b1100100 M
b1100100 9"
b1100100 ="
b1100100 P
b1100100 ,"
b1100100 7"
1I
b0 ?"
b100000 Z
b100000 i
b100000 0"
b0 Y
b0 h
b0 5"
b0 W
b0 y
b0 !
b0 %
b0 H
b0 D"
b0 H"
03
02
00
b0 +
b0 ;
b0 G
b0 q
07
06
0:
01
0'
0(
0&
0,
b1 E
b111000000000000000000000 D
#380
0"
#385
1"
#386
13
12
10
b10 E
b111111000000000000000000 D
#390
0"
#395
b1010 Y
b1010 h
b1010 5"
b1010 [
b1010 b
b1010 |
b1010 3"
b1010 ]
b1010 `
b1010 p
b1010 u
b1010 /"
1"
#396
b100000 M
b100000 9"
b100000 ="
b100000 P
b100000 ,"
b100000 7"
0I
b1010 Z
b1010 i
b1010 0"
b1 Y
b1 h
b1 5"
b1001 J
b1001 g
b1001 k
b1001 j
b1 9
b1 =
b1 F
b1 f
17
16
1:
b11 +
b11 ;
b11 G
b11 q
b111111111110000100000000 D
#398
11
b11 E
b111111111111000100000000 D
#400
0"
#405
b1001 8
b1001 X
b1001 l
b1001 {
b1001 +"
b1001 G"
1"
#406
1,
b100 E
b111111111111000100000001 D
#410
0"
#415
b0 U
b0 ""
b0 %"
b0 !"
b1101000000000110000000000000000 S
b1101000000000110000000000000000 $"
b1101000000000110000000000000000 '"
b1000 #"
b100100 K
b100100 d
b100100 ;"
b100000 L
b100000 e
b100000 >"
1"
#416
b100 ?"
b100 W
b100 y
b1001 !
b1001 %
b1001 H
b1001 D"
b1001 H"
1'
1(
1&
b0 E
b111111111111000111000101 D
#420
0"
#425
b11 ?"
b11 W
b11 y
b100100 M
b100100 9"
b100100 ="
b1010 J
b1010 g
b1010 k
b1010 j
b11 C"
b0 B"
b11 x
b11000000000000000000 m
b100100 P
b100100 ,"
b100100 7"
b0 Y
b0 h
b0 5"
b1101000000000110000000000000000 4
b1101000000000110000000000000000 <
b1101000000000110000000000000000 R
b1101000000000110000000000000000 ("
b11000000000000100100 N
b11000000000000100100 n
b11000000000000100100 8"
b100100 O
b100100 o
b100100 -"
b100100 1"
b100100 <"
b0 ^
b0 _
b0 @"
b0 \
b0 a
b0 A"
b0 T
b0 &"
b0 4"
1"
#426
b1001 M
b1001 9"
b1001 ="
b1001 P
b1001 ,"
b1001 7"
1I
b0 ?"
b100100 Z
b100100 i
b100100 0"
b1010 Y
b1010 h
b1010 5"
b0 W
b0 y
b0 !
b0 %
b0 H
b0 D"
b0 H"
03
02
00
b0 +
b0 ;
b0 G
b0 q
07
06
0:
01
b0 9
b0 =
b0 F
b0 f
0'
0(
0&
0,
b1 E
b111000000000000000000000 D
#430
0"
#435
1"
#436
13
12
10
b10 E
b111111000000000000000000 D
#440
0"
#445
b100100 M
b100100 9"
b100100 ="
b100100 P
b100100 ,"
b100100 7"
0I
b0 Y
b0 h
b0 5"
0s
1t
b0 ]
b0 `
b0 p
b0 u
b0 /"
b0 [
b0 b
b0 |
b0 3"
1"
#446
b0 Z
b0 i
b0 0"
b0 J
b0 g
b0 k
b0 j
17
16
1:
b11 +
b11 ;
b11 G
b11 q
b111111111110000000000000 D
#448
11
b11 E
b111111111111000000000000 D
#450
0"
#455
b0 8
b0 X
b0 l
b0 {
b0 +"
b0 G"
1"
#456
1,
b100 E
b111111111111000000000001 D
#460
0"
#465
b1 U
b1 ""
b1 %"
b1 !"
b1000100101001010000000000000001 S
b1000100101001010000000000000001 $"
b1000100101001010000000000000001 '"
b1001 #"
b101000 K
b101000 d
b101000 ;"
b100100 L
b100100 e
b100100 >"
1"
#466
b11 ?"
b11 W
b11 y
1'
1(
1&
b0 E
b111111111111000011000101 D
#470
0"
#475
b101 ?"
b1 J
b1 g
b1 k
b1 j
b101000 M
b101000 9"
b101000 ="
b101 W
b101 y
b1 Y
b1 h
b1 5"
b101000 P
b101000 ,"
b101000 7"
b1010 \
b1010 a
b1010 A"
b101 C"
b1010 ^
b1010 _
b1010 @"
b101 B"
b101 x
b10100101000000000000000100 m
b1 T
b1 &"
b1 4"
b10100101000000000000101100 N
b10100101000000000000101100 n
b10100101000000000000101100 8"
b101000 O
b101000 o
b101000 -"
b101000 1"
b101000 <"
b1000100101001010000000000000001 4
b1000100101001010000000000000001 <
b1000100101001010000000000000001 R
b1000100101001010000000000000001 ("
1"
#476
b0 ?"
b101000 Z
b101000 i
b101000 0"
b0 Y
b0 h
b0 5"
b0 W
b0 y
03
02
00
b0 +
b0 ;
b0 G
b0 q
07
06
0:
01
0'
0(
0&
0,
b1 E
b111000000000000000000000 D
#480
0"
#485
1"
#486
13
12
10
b10 E
b111111000000000000000000 D
#490
0"
#495
b0 M
b0 9"
b0 ="
b0 P
b0 ,"
b0 7"
1I
b1010 Y
b1010 h
b1010 5"
b1010 [
b1010 b
b1010 |
b1010 3"
1s
0t
b1010 ]
b1010 `
b1010 p
b1010 u
b1010 /"
1"
#496
b101000 M
b101000 9"
b101000 ="
b101000 P
b101000 ,"
b101000 7"
0I
b1010 Z
b1010 i
b1010 0"
b1 Y
b1 h
b1 5"
b1001 J
b1001 g
b1001 k
b1001 j
b1 9
b1 =
b1 F
b1 f
17
16
1:
b11 +
b11 ;
b11 G
b11 q
b111111111110000100000000 D
#498
11
b11 E
b111111111111000100000000 D
#500
0"
#505
b1001 8
b1001 X
b1001 l
b1001 {
b1001 +"
b1001 G"
1"
#506
1,
b100 E
b111111111111000100000001 D
#510
0"
#515
b11100000000001 U
b11100000000001 ""
b11100000000001 %"
b11100000000001 !"
b10011100000000001 S
b10011100000000001 $"
b10011100000000001 '"
b1010 #"
b101100 K
b101100 d
b101100 ;"
b101000 L
b101000 e
b101000 >"
1"
#516
b101 ?"
b101 W
b101 y
b1001 !
b1001 %
b1001 H
b1001 D"
b1001 H"
1'
1(
1&
b0 E
b111111111111000111000101 D
#520
0"
#525
b1 ?"
b1 W
b1 y
b101100 M
b101100 9"
b101100 ="
b11111111111111111100100000001001 J
b11111111111111111100100000001001 g
b11111111111111111100100000001001 k
b11111111111111111100100000001001 j
b1 C"
b0 B"
b1 x
b111 w
b1001110000000000100 m
b101100 P
b101100 ,"
b101100 7"
b11100000000001 Y
b11100000000001 h
b11100000000001 5"
b10011100000000001 4
b10011100000000001 <
b10011100000000001 R
b10011100000000001 ("
b1001110000000110000 N
b1001110000000110000 n
b1001110000000110000 8"
b101100 O
b101100 o
b101100 -"
b101100 1"
b101100 <"
b0 ^
b0 _
b0 @"
b1100100 \
b1100100 a
b1100100 A"
b11100000000001 T
b11100000000001 &"
b11100000000001 4"
1"
#526
b1001 M
b1001 9"
b1001 ="
b1001 P
b1001 ,"
b1001 7"
1I
b111 ?"
b101100 Z
b101100 i
b101100 0"
b1010 Y
b1010 h
b1010 5"
b111 W
b111 y
b0 !
b0 %
b0 H
b0 D"
b0 H"
03
02
00
b0 +
b0 ;
b0 G
b0 q
07
06
0:
01
b0 9
b0 =
b0 F
b0 f
0'
0(
0&
0,
b1 E
b111000000000000000000000 D
#530
0"
#535
1"
