KGP-RISC-Processor/test.vcd
$date
	Fri Oct 27 14:39:44 2023
$end
$version
	Icarus Verilog
$end
$timescale
	1s
$end
$scope module mips_tb $end
$var wire 32 ! writedata [31:0] $end
$var reg 1 " clk $end
$var reg 1 # reset $end
$scope module dut $end
$var wire 1 " clk $end
$var wire 1 # reset $end
$var wire 1 $ writedmem $end
$var wire 32 % writedata [31:0] $end
$var wire 1 & selwb $end
$var wire 1 ' seldest $end
$var wire 1 ( regwrite $end
$var wire 1 ) readim $end
$var wire 1 * readdmem $end
$var wire 2 + opcond [1:0] $end
$var wire 1 , ldpc $end
$var wire 1 - ldnpc $end
$var wire 1 . ldlmd $end
$var wire 1 / ldir $end
$var wire 1 0 ldimm $end
$var wire 1 1 ldaluout $end
$var wire 1 2 ldB $end
$var wire 1 3 ldA $end
$var wire 32 4 irout [31:0] $end
$var wire 1 5 branch $end
$var wire 1 6 alusel2 $end
$var wire 1 7 alusel1 $end
$var wire 32 8 aluout [31:0] $end
$var wire 4 9 alufunc [3:0] $end
$var wire 1 : aluen $end
$scope module ctrl $end
$var wire 1 " clk $end
$var wire 1 # reset $end
$var wire 1 $ writedmem $end
$var wire 1 & selwb $end
$var wire 1 ' seldest $end
$var wire 1 ( regwrite $end
$var wire 1 ) readim $end
$var wire 1 * readdmem $end
$var wire 2 ; opcond [1:0] $end
$var wire 1 , ldpc $end
$var wire 1 - ldnpc $end
$var wire 1 . ldlmd $end
$var wire 1 / ldir $end
$var wire 1 0 ldimm $end
$var wire 1 1 ldaluout $end
$var wire 1 2 ldB $end
$var wire 1 3 ldA $end
$var wire 32 < irout [31:0] $end
$var wire 1 5 branch $end
$var wire 1 6 alusel2 $end
$var wire 1 7 alusel1 $end
$var wire 4 = alufunc [3:0] $end
$var wire 1 : aluen $end
$var parameter 3 > EX $end
$var parameter 3 ? HLT $end
$var parameter 3 @ ID $end
$var parameter 3 A IF $end
$var parameter 3 B MEM $end
$var parameter 3 C WB $end
$var reg 24 D control_signals [23:0] $end
$var reg 3 E state [2:0] $end
$upscope $end
$scope module dpath $end
$var wire 1 : aluen $end
$var wire 4 F alufunc [3:0] $end
$var wire 1 7 alusel1 $end
$var wire 1 6 alusel2 $end
$var wire 1 5 branch $end
$var wire 1 " clk $end
$var wire 1 3 ldA $end
$var wire 1 2 ldB $end
$var wire 1 1 ldaluout $end
$var wire 1 0 ldimm $end
$var wire 1 / ldir $end
$var wire 1 . ldlmd $end
$var wire 1 - ldnpc $end
$var wire 1 , ldpc $end
$var wire 2 G opcond [1:0] $end
$var wire 1 * readdmem $end
$var wire 1 ) readim $end
$var wire 1 ( regwrite $end
$var wire 1 # reset $end
$var wire 1 ' seldest $end
$var wire 1 & selwb $end
$var wire 1 $ writedmem $end
$var wire 32 H writedata [31:0] $end
$var wire 1 I selmem $end
$var wire 32 J result [31:0] $end
$var wire 32 K pcplus4 [31:0] $end
$var wire 32 L pcout [31:0] $end
$var wire 32 M pcnext [31:0] $end
$var wire 32 N pcbranch [31:0] $end
$var wire 32 O npcout [31:0] $end
$var wire 32 P memmuxout [31:0] $end
$var wire 32 Q lmdout [31:0] $end
$var wire 32 R irout [31:0] $end
$var wire 32 S instr [31:0] $end
$var wire 32 T immout [31:0] $end
$var wire 32 U imm [31:0] $end
$var wire 32 V dmemout [31:0] $end
$var wire 32 W destadd [31:0] $end
$var wire 32 X aluout [31:0] $end
$var wire 32 Y aluin2 [31:0] $end
$var wire 32 Z aluin1 [31:0] $end
$var wire 32 [ Bout [31:0] $end
$var wire 32 \ Bin [31:0] $end
$var wire 32 ] Aout [31:0] $end
$var wire 32 ^ Ain [31:0] $end
$scope module A $end
$var wire 1 " clk $end
$var wire 1 3 ld $end
$var wire 1 # reset $end
$var wire 32 _ din [31:0] $end
$var reg 32 ` dout [31:0] $end
$upscope $end
$scope module B $end
$var wire 1 " clk $end
$var wire 1 2 ld $end
$var wire 1 # reset $end
$var wire 32 a din [31:0] $end
$var reg 32 b dout [31:0] $end
$upscope $end
$scope module addpc $end
$var wire 32 c b [31:0] $end
$var wire 32 d out [31:0] $end
$var wire 32 e a [31:0] $end
$upscope $end
$scope module alu $end
$var wire 1 : en $end
$var wire 4 f mode [3:0] $end
$var wire 32 g out [31:0] $end
$var wire 32 h operand2 [31:0] $end
$var wire 32 i operand1 [31:0] $end
$var reg 32 j ALUout [31:0] $end
$upscope $end
$scope module aluoutreg $end
$var wire 1 " clk $end
$var wire 32 k din [31:0] $end
$var wire 1 1 ld $end
$var wire 1 # reset $end
$var reg 32 l dout [31:0] $end
$upscope $end
$scope module bradd $end
$var wire 32 m b [31:0] $end
$var wire 32 n out [31:0] $end
$var wire 32 o a [31:0] $end
$upscope $end
$scope module cond $end
$var wire 32 p a [31:0] $end
$var wire 2 q opcond [1:0] $end
$var wire 1 I y $end
$var wire 1 r lt $end
$var wire 1 s gt $end
$var wire 1 t eq $end
$scope module cmp $end
$var wire 32 u data1 [31:0] $end
$var wire 32 v data2 [31:0] $end
$var wire 1 r lt $end
$var wire 1 s gt $end
$var wire 1 t eq $end
$upscope $end
$upscope $end
$scope module destmux $end
$var wire 32 w a [31:0] $end
$var wire 32 x b [31:0] $end
$var wire 1 ' s $end
$var wire 32 y out [31:0] $end
$var parameter 32 z N $end
$upscope $end
$scope module dmem $end
$var wire 32 { addr [31:0] $end
$var wire 1 " clk $end
$var wire 32 | din [31:0] $end
$var wire 1 * read $end
$var wire 1 # reset $end
$var wire 1 $ write $end
$var wire 32 } dout [31:0] $end
$var integer 32 ~ k [31:0] $end
$upscope $end
$scope module ext $end
$var wire 16 !" a [15:0] $end
$var wire 32 "" y [31:0] $end
$upscope $end
$scope module imem $end
$var wire 6 #" addr [5:0] $end
$var wire 1 ) read $end
$var wire 32 $" I [31:0] $end
$upscope $end
$scope module immreg $end
$var wire 1 " clk $end
$var wire 32 %" din [31:0] $end
$var wire 1 0 ld $end
$var wire 1 # reset $end
$var reg 32 &" dout [31:0] $end
$upscope $end
$scope module irreg $end
$var wire 1 " clk $end
$var wire 32 '" din [31:0] $end
$var wire 1 / ld $end
$var wire 1 # reset $end
$var reg 32 (" dout [31:0] $end
$upscope $end
$scope module lmdreg $end
$var wire 1 " clk $end
$var wire 32 )" din [31:0] $end
$var wire 1 . ld $end
$var wire 1 # reset $end
$var reg 32 *" dout [31:0] $end
$upscope $end
$scope module memmux $end
$var wire 32 +" b [31:0] $end
$var wire 1 I s $end
$var wire 32 ," out [31:0] $end
$var wire 32 -" a [31:0] $end
$var parameter 32 ." N $end
$upscope $end
$scope module muxalu1 $end
$var wire 32 /" b [31:0] $end
$var wire 1 7 s $end
$var wire 32 0" out [31:0] $end
$var wire 32 1" a [31:0] $end
$var parameter 32 2" N $end
$upscope $end
$scope module muxalu2 $end
$var wire 32 3" a [31:0] $end
$var wire 32 4" b [31:0] $end
$var wire 1 6 s $end
$var wire 32 5" out [31:0] $end
$var parameter 32 6" N $end
$upscope $end
$scope module muxbr $end
$var wire 32 7" a [31:0] $end
$var wire 32 8" b [31:0] $end
$var wire 1 5 s $end
$var wire 32 9" out [31:0] $end
$var parameter 32 :" N $end
$upscope $end
$scope module npcreg $end
$var wire 1 " clk $end
$var wire 32 ;" din [31:0] $end
$var wire 1 - ld $end
$var wire 1 # reset $end
$var reg 32 <" dout [31:0] $end
$upscope $end
$scope module pcreg $end
$var wire 1 " clk $end
$var wire 32 =" din [31:0] $end
$var wire 1 , ld $end
$var wire 1 # reset $end
$var reg 32 >" dout [31:0] $end
$upscope $end
$scope module rbank $end
$var wire 1 " clk $end
$var wire 5 ?" dr [4:0] $end
$var wire 32 @" rData1 [31:0] $end
$var wire 32 A" rData2 [31:0] $end
$var wire 1 # reset $end
$var wire 5 B" sr1 [4:0] $end
$var wire 5 C" sr2 [4:0] $end
$var wire 1 ( write $end
$var wire 32 D" wrData [31:0] $end
$var integer 32 E" k [31:0] $end
$upscope $end
$scope module wbmux $end
$var wire 32 F" a [31:0] $end
$var wire 32 G" b [31:0] $end
$var wire 1 & s $end
$var wire 32 H" out [31:0] $end
$var parameter 32 I" N $end
$upscope $end
$upscope $end
$upscope $end
$upscope $end
$enddefinitions $end
$comment Show the parameter values. $end
$dumpall
b100000 I"
b100000 :"
b100000 6"
b100000 2"
b100000 ."
b100000 z
b100 C
b11 B
b0 A
b1 @
b101 ?
b10 >
$end
#0
$dumpvars
bx H"
bx G"
bx F"
bx E"
bx D"
bx C"
bx B"
bx A"
bx @"
bx ?"
bx >"
bx ="
bx <"
bx ;"
bx 9"
bx 8"
bx 7"
bx 5"
bx 4"
bx 3"
bx 1"
bx 0"
bx /"
bx -"
bx ,"
bx +"
bx *"
bx )"
bx ("
bx '"
bx &"
bx %"
bx $"
bx #"
bx ""
bx !"
bx ~
bx }
bx |
bx {
b0xxxxx y
b0xxxxx x
b0xxxxx w
b0 v
bx u
xt
xs
xr
bx q
bx p
bx o
bx n
bx00 m
bx l
bx k
bx j
bx i
bx h
bx g
bx f
bx e
bx d
b100 c
bx b
bx a
bx `
bx _
bx ^
bx ]
bx \
bx [
bx Z
bx Y
bx X
b0xxxxx W
bx V
bx U
bx T
bx S
bx R
bx Q
bx P
bx O
bx N
bx M
bx L
bx K
bx J
xI
bx H
bx G
bx F
bx E
bx D
bx =
bx <
bx ;
x:
bx 9
bx 8
x7
x6
x5
bx 4
x3
x2
x1
x0
x/
x.
x-
x,
bx +
x*
x)
x(
x'
x&
bx %
x$
1#
0"
bx !
$end
#5
0I
b0 ?"
b0 W
b0 y
b0 M
b0 9"
b0 ="
0)
0/
0-
03
02
00
b0 +
b0 ;
b0 G
b0 q
07
06
0:
01
b0 9
b0 =
b0 F
b0 f
0'
0(
0$
0*
0.
0&
05
0,
b0 #"
b0 \
b0 a
b0 A"
b0 C"
b0 ^
b0 _
b0 @"
b0 B"
b0 x
b0 w
b0 N
b0 n
b0 8"
b0 m
b0 Z
b0 i
b0 0"
b0 Y
b0 h
b0 5"
b0 P
b0 ,"
b0 7"
b0 !
b0 %
b0 H
b0 D"
b0 H"
b0 D
b100 K
b100 d
b100 ;"
b0 L
b0 e
b0 >"
b0 4
b0 <
b0 R
b0 ("
b0 O
b0 o
b0 -"
b0 1"
b0 <"
0r
0s
1t
b0 ]
b0 `
b0 p
b0 u
b0 /"
b0 [
b0 b
b0 |
b0 3"
b0 T
b0 &"
b0 4"
b0 8
b0 X
b0 l
b0 {
b0 +"
b0 G"
b0 Q
b0 *"
b0 F"
b100000 E"
b10000000000 ~
1"
#10
0"
#15
b0 E
1"
0#
#20
0"
#25
1"
#26
b10001111 U
b10001111 ""
b10001111 %"
b10001111 !"
b1000000000000010000000010001111 S
b1000000000000010000000010001111 $"
b1000000000000010000000010001111 '"
1)
1/
1-
b1 E
b111000000000000000000000 D
#30
0"
#35
b100 M
b100 9"
b100 ="
b100 Z
b100 i
b100 0"
b100 P
b100 ,"
b100 7"
b1 C"
b1 x
b1000000001000111100 m
b1000000001001000000 N
b1000000001001000000 n
b1000000001001000000 8"
b100 O
b100 o
b100 -"
b100 1"
b100 <"
b1000000000000010000000010001111 4
b1000000000000010000000010001111 <
b1000000000000010000000010001111 R
b1000000000000010000000010001111 ("
1"
#36
13
12
10
b10 E
b111111000000000000000000 D
#40
0"
#45
b10001111 T
b10001111 &"
b10001111 4"
1"
#46
b0 Z
b0 i
b0 0"
b10001111 Y
b10001111 h
b10001111 5"
b10001111 J
b10001111 g
b10001111 k
b10001111 j
17
16
1:
b11 +
b11 ;
b11 G
b11 q
b111111111110000000000000 D
#48
11
b11 E
b111111111111000000000000 D
#50
0"
#55
b10001111 8
b10001111 X
b10001111 l
b10001111 {
b10001111 +"
b10001111 G"
1"
#56
1,
b100 E
b111111111111000000000001 D
#60
0"
#65
b1001110 U
b1001110 ""
b1001110 %"
b1001110 !"
b1000000000000100000000001001110 S
b1000000000000100000000001001110 $"
b1000000000000100000000001001110 '"
b1 #"
b1000 K
b1000 d
b1000 ;"
b100 L
b100 e
b100 >"
1"
#66
b1 ?"
b1 W
b1 y
b10001111 !
b10001111 %
b10001111 H
b10001111 D"
b10001111 H"
1'
1(
1&
b0 E
b111111111111000011000101 D
#70
0"
#75
b10 ?"
b1001110 J
b1001110 g
b1001110 k
b1001110 j
b1000 M
b1000 9"
b1000 ="
b10 W
b10 y
b1001110 Y
b1001110 h
b1001110 5"
b1000 P
b1000 ,"
b1000 7"
b10 C"
b10 x
b10000000000100111000 m
b1001110 T
b1001110 &"
b1001110 4"
b0 \
b0 a
b0 A"
b10000000000101000000 N
b10000000000101000000 n
b10000000000101000000 8"
b1000 O
b1000 o
b1000 -"
b1000 1"
b1000 <"
b1000000000000100000000001001110 4
b1000000000000100000000001001110 <
b1000000000000100000000001001110 R
b1000000000000100000000001001110 ("
1"
#76
b0 ?"
b1000 Z
b1000 i
b1000 0"
b0 Y
b0 h
b0 5"
b0 W
b0 y
b0 !
b0 %
b0 H
b0 D"
b0 H"
03
02
00
b0 +
b0 ;
b0 G
b0 q
07
06
0:
01
0'
0(
0&
0,
b1 E
b111000000000000000000000 D
#80
0"
#85
1"
#86
13
12
10
b10 E
b111111000000000000000000 D
#90
0"
#95
1"
#96
b0 Z
b0 i
b0 0"
b1001110 Y
b1001110 h
b1001110 5"
b1001110 J
b1001110 g
b1001110 k
b1001110 j
17
16
1:
b11 +
b11 ;
b11 G
b11 q
b111111111110000000000000 D
#98
11
b11 E
b111111111111000000000000 D
#100
0"
#105
b1001110 8
b1001110 X
b1001110 l
b1001110 {
b1001110 +"
b1001110 G"
1"
#106
1,
b100 E
b111111111111000000000001 D
#110
0"
#115
b0 U
b0 ""
b0 %"
b0 !"
b10001000000000010000000000000000 S
b10001000000000010000000000000000 $"
b10001000000000010000000000000000 '"
b10 #"
b1100 K
b1100 d
b1100 ;"
b1000 L
b1000 e
b1000 >"
1"
#116
b10 ?"
b10 W
b10 y
b1001110 !
b1001110 %
b1001110 H
b1001110 D"
b1001110 H"
1'
1(
1&
b0 E
b111111111111000011000101 D
#120
0"
#125
b1 ?"
b1 W
b1 y
b1100 M
b1100 9"
b1100 ="
b0 J
b0 g
b0 k
b0 j
b1 C"
b1 x
b1000000000000000000 m
b1100 P
b1100 ,"
b1100 7"
b0 Y
b0 h
b0 5"
b10001000000000010000000000000000 4
b10001000000000010000000000000000 <
b10001000000000010000000000000000 R
b10001000000000010000000000000000 ("
b1000000000000001100 N
b1000000000000001100 n
b1000000000000001100 8"
b1100 O
b1100 o
b1100 -"
b1100 1"
b1100 <"
b10001111 \
b10001111 a
b10001111 A"
b0 T
b0 &"
b0 4"
1"
#126
b0 ?"
b1100 Z
b1100 i
b1100 0"
b0 W
b0 y
b0 !
b0 %
b0 H
b0 D"
b0 H"
03
02
00
b0 +
b0 ;
b0 G
b0 q
07
06
0:
01
0'
0(
0&
0,
b1 E
b111000000000000000000000 D
#130
0"
#135
1"
#136
13
12
10
b10 E
b111111000000000000000000 D
#140
0"
#145
b10001111 Y
b10001111 h
b10001111 5"
b10001111 [
b10001111 b
b10001111 |
b10001111 3"
1"
#146
b0 Z
b0 i
b0 0"
b0 Y
b0 h
b0 5"
b0 J
b0 g
b0 k
b0 j
17
16
1:
b11 +
b11 ;
b11 G
b11 q
b111111111110000000000000 D
#148
11
b11 E
b111111111111000000000000 D
#150
0"
#155
b0 8
b0 X
b0 l
b0 {
b0 +"
b0 G"
1"
#156
1,
1$
b100 E
b111111111111000000100001 D
#160
0"
#165
b1 U
b1 ""
b1 %"
b1 !"
b10001000000000100000000000000001 S
b10001000000000100000000000000001 $"
b10001000000000100000000000000001 '"
b11 #"
b10000 K
b10000 d
b10000 ;"
b1100 L
b1100 e
b1100 >"
1"
#166
1&
b0 E
b111111111111000000100101 D
#170
0"
#175
b1 J
b1 g
b1 k
b1 j
b10000 M
b10000 9"
b10000 ="
b1 Y
b1 h
b1 5"
b10000 P
b10000 ,"
b10000 7"
b1001110 \
b1001110 a
b1001110 A"
b10 C"
b10 x
b10000000000000000100 m
b1 T
b1 &"
b1 4"
b10000000000000010100 N
b10000000000000010100 n
b10000000000000010100 8"
b10000 O
b10000 o
b10000 -"
b10000 1"
b10000 <"
b10001000000000100000000000000001 4
b10001000000000100000000000000001 <
b10001000000000100000000000000001 R
b10001000000000100000000000000001 ("
1"
#176
b10000 Z
b10000 i
b10000 0"
b10001111 Y
b10001111 h
b10001111 5"
03
02
00
b0 +
b0 ;
b0 G
b0 q
07
06
0:
01
0$
0&
0,
b1 E
b111000000000000000000000 D
#180
0"
#185
1"
#186
13
12
10
b10 E
b111111000000000000000000 D
#190
0"
#195
b1001110 Y
b1001110 h
b1001110 5"
b1001110 [
b1001110 b
b1001110 |
b1001110 3"
1"
#196
b0 Z
b0 i
b0 0"
b1 Y
b1 h
b1 5"
b1 J
b1 g
b1 k
b1 j
17
16
1:
b11 +
b11 ;
b11 G
b11 q
b111111111110000000000000 D
#198
11
b11 E
b111111111111000000000000 D
#200
0"
#205
b1 8
b1 X
b1 l
b1 {
b1 +"
b1 G"
1"
#206
1,
1$
b100 E
b111111111111000000100001 D
#210
0"
#215
b1100000000010 U
b1100000000010 ""
b1100000000010 %"
b1100000000010 !"
b1000100001100000000010 S
b1000100001100000000010 $"
b1000100001100000000010 '"
b100 #"
b10100 K
b10100 d
b10100 ;"
b10000 L
b10000 e
b10000 >"
1"
#216
b1 !
b1 %
b1 H
b1 D"
b1 H"
1&
b0 E
b111111111111000000100101 D
#220
0"
#225
b11 ?"
b11 W
b11 y
b10100 M
b10100 9"
b10100 ="
b1100000000010 J
b1100000000010 g
b1100000000010 k
b1100000000010 j
b10001111 ^
b10001111 _
b10001111 @"
b1 B"
b11 w
b100010000110000000001000 m
b10100 P
b10100 ,"
b10100 7"
b1100000000010 Y
b1100000000010 h
b1100000000010 5"
b1000100001100000000010 4
b1000100001100000000010 <
b1000100001100000000010 R
b1000100001100000000010 ("
b100010000110000000011100 N
b100010000110000000011100 n
b100010000110000000011100 8"
b10100 O
b10100 o
b10100 -"
b10100 1"
b10100 <"
b1100000000010 T
b1100000000010 &"
b1100000000010 4"
1"
#226
b10100 Z
b10100 i
b10100 0"
b1001110 Y
b1001110 h
b1001110 5"
b0 !
b0 %
b0 H
b0 D"
b0 H"
03
02
00
b0 +
b0 ;
b0 G
b0 q
07
06
0:
01
0$
0&
0,
b1 E
b111000000000000000000000 D
#230
0"
#235
1"
#236
13
12
10
b10 E
b111111000000000000000000 D
#240
0"
#245
b1 M
b1 9"
b1 ="
b1 P
b1 ,"
b1 7"
1I
1s
0t
b10001111 ]
b10001111 `
b10001111 p
b10001111 u
b10001111 /"
1"
#246
b10100 M
b10100 9"
b10100 ="
b10100 P
b10100 ,"
b10100 7"
0I
b10001111 Z
b10001111 i
b10001111 0"
b1000001 J
b1000001 g
b1000001 k
b1000001 j
b1 9
b1 =
b1 F
b1 f
17
1:
b11 +
b11 ;
b11 G
b11 q
b111111111010000100000000 D
#248
11
b11 E
b111111111011000100000000 D
#250
0"
#255
b1000001 8
b1000001 X
b1000001 l
b1000001 {
b1000001 +"
b1000001 G"
1"
#256
1,
b100 E
b111111111011000100000001 D
#260
0"
#265
b11 U
b11 ""
b11 %"
b11 !"
b11000100011000110000000000000011 S
b11000100011000110000000000000011 $"
b11000100011000110000000000000011 '"
b101 #"
b11000 K
b11000 d
b11000 ;"
b10100 L
b10100 e
b10100 >"
1"
#266
b1000001 !
b1000001 %
b1000001 H
b1000001 D"
b1000001 H"
1(
1&
b0 E
b111111111011000101000101 D
#270
0"
#275
b0 ?"
b11000 M
b11000 9"
b11000 ="
b0 W
b0 y
b11000 P
b11000 ,"
b11000 7"
b1000001 \
b1000001 a
b1000001 A"
b11 C"
b1000001 ^
b1000001 _
b1000001 @"
b11 B"
b11 x
b0 w
b1100011000000000000001100 m
b11 T
b11 &"
b11 4"
b1100011000000000000100100 N
b1100011000000000000100100 n
b1100011000000000000100100 8"
b11000 O
b11000 o
b11000 -"
b11000 1"
b11000 <"
b11000100011000110000000000000011 4
b11000100011000110000000000000011 <
b11000100011000110000000000000011 R
b11000100011000110000000000000011 ("
1"
#276
b1000001 M
b1000001 9"
b1000001 ="
b1000001 P
b1000001 ,"
b1000001 7"
1I
b11000 Z
b11000 i
b11000 0"
b0 !
b0 %
b0 H
b0 D"
b0 H"
03
02
00
b0 +
b0 ;
b0 G
b0 q
07
0:
01
b0 9
b0 =
b0 F
b0 f
0(
0&
0,
b1 E
b111000000000000000000000 D
#280
0"
#285
1"
#286
13
12
10
b10 E
b111111000000000000000000 D
#290
0"
#295
b1000001 Y
b1000001 h
b1000001 5"
b1000001 [
b1000001 b
b1000001 |
b1000001 3"
b1000001 ]
b1000001 `
b1000001 p
b1000001 u
b1000001 /"
1"
#296
b11000 M
b11000 9"
b11000 ="
b11000 P
b11000 ,"
b11000 7"
0I
b11 Y
b11 h
b11 5"
b100100 J
b100100 g
b100100 k
b100100 j
b1 +
b1 ;
b1 G
b1 q
b1010 9
b1010 =
b1010 F
b1010 f
16
1:
b111111010110101000000000 D
#298
11
b11 E
b111111010111101000000000 D
#300
0"
#305
b100100 8
b100100 X
b100100 l
b100100 {
b100100 +"
b100100 G"
1"
#306
1,
b100 E
b111111010111101000000001 D
#310
0"
#315
b110 U
b110 ""
b110 %"
b110 !"
b11001000011000110000000000000110 S
b11001000011000110000000000000110 $"
b11001000011000110000000000000110 '"
b110 #"
b11100 K
b11100 d
b11100 ;"
b11000 L
b11000 e
b11000 >"
1"
#316
b0 E
#320
0"
#325
b11100 M
b11100 9"
b11100 ="
b110100 J
b110100 g
b110100 k
b110100 j
b1100011000000000000011000 m
b11100 Z
b11100 i
b11100 0"
b11100 P
b11100 ,"
b11100 7"
b110 Y
b110 h
b110 5"
b11001000011000110000000000000110 4
b11001000011000110000000000000110 <
b11001000011000110000000000000110 R
b11001000011000110000000000000110 ("
b1100011000000000000110100 N
b1100011000000000000110100 n
b1100011000000000000110100 8"
b11100 O
b11100 o
b11100 -"
b11100 1"
b11100 <"
b110 T
b110 &"
b110 4"
1"
#326
b100100 M
b100100 9"
b100100 ="
b100100 P
b100100 ,"
b100100 7"
1I
b1000001 Y
b1000001 h
b1000001 5"
03
02
00
b0 +
b0 ;
b0 G
b0 q
06
0:
01
b0 9
b0 =
b0 F
b0 f
0,
b1 E
b111000000000000000000000 D
#330
0"
#335
1"
#336
13
12
10
b10 E
b111111000000000000000000 D
#340
0"
#345
1"
#346
b110 Y
b110 h
b110 5"
b110100 J
b110100 g
b110100 k
b110100 j
b1010 9
b1010 =
b1010 F
b1010 f
16
1:
b111111000110101000000000 D
#348
11
b11 E
b111111000111101000000000 D
#350
0"
#355
b110100 M
b110100 9"
b110100 ="
b110100 P
b110100 ,"
b110100 7"
b110100 8
b110100 X
b110100 l
b110100 {
b110100 +"
b110100 G"
1"
#356
1,
b100 E
b111111000111101000000001 D
#360
0"
#365
b0 U
b0 ""
b0 %"
b0 !"
b1101000011000010000000000000000 S
b1101000011000010000000000000000 $"
b1101000011000010000000000000000 '"
b1101 #"
b111000 K
b111000 d
b111000 ;"
b110100 L
b110100 e
b110100 >"
1"
#366
b0 E
#370
0"
#375
b111000 J
b111000 g
b111000 k
b111000 j
b0 Y
b0 h
b0 5"
b111000 Z
b111000 i
b111000 0"
b10001111 \
b10001111 a
b10001111 A"
b1 C"
b1 x
b1100001000000000000000000 m
b0 T
b0 &"
b0 4"
b1100001000000000000111000 N
b1100001000000000000111000 n
b1100001000000000000111000 8"
b111000 O
b111000 o
b111000 -"
b111000 1"
b111000 <"
b1101000011000010000000000000000 4
b1101000011000010000000000000000 <
b1101000011000010000000000000000 R
b1101000011000010000000000000000 ("
1"
#376
b1000001 Y
b1000001 h
b1000001 5"
03
02
00
06
0:
01
b0 9
b0 =
b0 F
b0 f
0,
b1 E
b111000000000000000000000 D
#380
0"
#385
1"
#386
13
12
10
b10 E
b111111000000000000000000 D
#390
0"
#395
b10001111 Y
b10001111 h
b10001111 5"
b10001111 [
b10001111 b
b10001111 |
b10001111 3"
1"
#396
b111000 M
b111000 9"
b111000 ="
b111000 P
b111000 ,"
b111000 7"
0I
b1000001 Z
b1000001 i
b1000001 0"
b0 Y
b0 h
b0 5"
b1000001 J
b1000001 g
b1000001 k
b1000001 j
17
16
1:
b11 +
b11 ;
b11 G
b11 q
b111111111110000000000000 D
#398
11
b11 E
b111111111111000000000000 D
#400
0"
#405
b1000001 8
b1000001 X
b1000001 l
b1000001 {
b1000001 +"
b1000001 G"
1"
#406
1,
b100 E
b111111111111000000000001 D
#410
0"
#415
b11111111111111111111111111110101 U
b11111111111111111111111111110101 ""
b11111111111111111111111111110101 %"
b1111111111110101 !"
b11000011111111111111111111110101 S
b11000011111111111111111111110101 $"
b11000011111111111111111111110101 '"
b1110 #"
b111100 K
b111100 d
b111100 ;"
b111000 L
b111000 e
b111000 >"
1"
#416
b1 ?"
b1 W
b1 y
b1000001 !
b1000001 %
b1000001 H
b1000001 D"
b1000001 H"
1'
1(
1&
b0 E
b111111111111000011000101 D
#420
0"
#425
b11111 ?"
b11111 W
b11111 y
b111100 M
b111100 9"
b111100 ="
b110110 J
b110110 g
b110110 k
b110110 j
b11111 C"
b0 ^
b0 _
b0 @"
b11111 B"
b11111 x
b11111 w
b11111111111111111111111111010100 m
b111100 P
b111100 ,"
b111100 7"
b11111111111111111111111111110101 Y
b11111111111111111111111111110101 h
b11111111111111111111111111110101 5"
b11000011111111111111111111110101 4
b11000011111111111111111111110101 <
b11000011111111111111111111110101 R
b11000011111111111111111111110101 ("
b10000 N
b10000 n
b10000 8"
b111100 O
b111100 o
b111100 -"
b111100 1"
b111100 <"
b0 \
b0 a
b0 A"
b11111111111111111111111111110101 T
b11111111111111111111111111110101 &"
b11111111111111111111111111110101 4"
1"
#426
b1000001 M
b1000001 9"
b1000001 ="
b1000001 P
b1000001 ,"
b1000001 7"
1I
b111100 Z
b111100 i
b111100 0"
b10001111 Y
b10001111 h
b10001111 5"
b0 !
b0 %
b0 H
b0 D"
b0 H"
03
02
00
b0 +
b0 ;
b0 G
b0 q
07
06
0:
01
0'
0(
0&
0,
b1 E
b111000000000000000000000 D
#430
0"
#435
1"
#436
13
12
10
b10 E
b111111000000000000000000 D
#440
0"
#445
b111100 M
b111100 9"
b111100 ="
b111100 P
b111100 ,"
b111100 7"
0I
b0 Y
b0 h
b0 5"
0s
1t
b0 ]
b0 `
b0 p
b0 u
b0 /"
b0 [
b0 b
b0 |
b0 3"
1"
#446
b11111111111111111111111111110101 Y
b11111111111111111111111111110101 h
b11111111111111111111111111110101 5"
b10000 J
b10000 g
b10000 k
b10000 j
b11 +
b11 ;
b11 G
b11 q
b1010 9
b1010 =
b1010 F
b1010 f
16
1:
b111111110110101000000000 D
#448
11
b11 E
b111111110111101000000000 D
#450
0"
#455
b10000 8
b10000 X
b10000 l
b10000 {
b10000 +"
b10000 G"
1"
#456
b10000 M
b10000 9"
b10000 ="
15
1,
b100 E
b111111110111101000000011 D
#460
0"
#465
b1100000000010 U
b1100000000010 ""
b1100000000010 %"
b1100000000010 !"
b1000100001100000000010 S
b1000100001100000000010 $"
b1000100001100000000010 '"
b100 #"
b10100 K
b10100 d
b10100 ;"
b10000 L
b10000 e
b10000 >"
1"
#466
b0 E
#470
0"
#475
b11 ?"
b110000000011100 J
b110000000011100 g
b110000000011100 k
b110000000011100 j
b11 W
b11 y
b1100000000010 Y
b1100000000010 h
b1100000000010 5"
b10100 Z
b10100 i
b10100 0"
b10100 P
b10100 ,"
b10100 7"
b100010000110000000011100 M
b100010000110000000011100 9"
b100010000110000000011100 ="
b1001110 \
b1001110 a
b1001110 A"
b10 C"
b1000001 ^
b1000001 _
b1000001 @"
b1 B"
b10 x
b11 w
b100010000110000000001000 m
b1100000000010 T
b1100000000010 &"
b1100000000010 4"
b100010000110000000011100 N
b100010000110000000011100 n
b100010000110000000011100 8"
b10100 O
b10100 o
b10100 -"
b10100 1"
b10100 <"
b1000100001100000000010 4
b1000100001100000000010 <
b1000100001100000000010 R
b1000100001100000000010 ("
1"
#476
b0 Y
b0 h
b0 5"
b10100 M
b10100 9"
b10100 ="
03
02
00
b0 +
b0 ;
b0 G
b0 q
06
0:
01
b0 9
b0 =
b0 F
b0 f
05
0,
b1 E
b111000000000000000000000 D
#480
0"
#485
1"
#486
13
12
10
b10 E
b111111000000000000000000 D
#490
0"
#495
b10000 M
b10000 9"
b10000 ="
b10000 P
b10000 ,"
b10000 7"
1I
b1001110 Y
b1001110 h
b1001110 5"
b1001110 [
b1001110 b
b1001110 |
b1001110 3"
1s
0t
b1000001 ]
b1000001 `
b1000001 p
b1000001 u
b1000001 /"
1"
#496
b10100 M
b10100 9"
b10100 ="
b10100 P
b10100 ,"
b10100 7"
0I
b1000001 Z
b1000001 i
b1000001 0"
b11111111111111111111111111110011 J
b11111111111111111111111111110011 g
b11111111111111111111111111110011 k
b11111111111111111111111111110011 j
b1 9
b1 =
b1 F
b1 f
17
1:
b11 +
b11 ;
b11 G
b11 q
b111111111010000100000000 D
#498
11
b11 E
b111111111011000100000000 D
#500
0"
#505
b11111111111111111111111111110011 8
b11111111111111111111111111110011 X
b11111111111111111111111111110011 l
b11111111111111111111111111110011 {
b11111111111111111111111111110011 +"
b11111111111111111111111111110011 G"
1"
#506
1,
b100 E
b111111111011000100000001 D
#510
0"
#515
b11 U
b11 ""
b11 %"
b11 !"
b11000100011000110000000000000011 S
b11000100011000110000000000000011 $"
b11000100011000110000000000000011 '"
b101 #"
b11000 K
b11000 d
b11000 ;"
b10100 L
b10100 e
b10100 >"
1"
