KGP-RISC-Processor/test.vcd
$date
	Thu Dec 21 19:54:31 2023
$end
$version
	Icarus Verilog
$end
$timescale
	1s
$end
$scope module mips_tb $end
$var wire 32 ! writedata [31:0] $end
$var reg 1 " clk $end
$var reg 1 # reset $end
$scope module dut $end
$var wire 1 " clk $end
$var wire 1 # reset $end
$var wire 1 $ writedmem $end
$var wire 32 % writedata [31:0] $end
$var wire 1 & selwb $end
$var wire 1 ' seldest $end
$var wire 1 ( regwrite $end
$var wire 1 ) readim $end
$var wire 1 * readdmem $end
$var wire 2 + opcond [1:0] $end
$var wire 1 , ldpc $end
$var wire 1 - ldnpc $end
$var wire 1 . ldlmd $end
$var wire 1 / ldir $end
$var wire 1 0 ldimm $end
$var wire 1 1 ldaluout $end
$var wire 1 2 ldB $end
$var wire 1 3 ldA $end
$var wire 32 4 irout [31:0] $end
$var wire 1 5 branch $end
$var wire 1 6 alusel2 $end
$var wire 1 7 alusel1 $end
$var wire 32 8 aluout [31:0] $end
$var wire 4 9 alufunc [3:0] $end
$var wire 1 : aluen $end
$scope module ctrl $end
$var wire 1 " clk $end
$var wire 1 # reset $end
$var wire 1 $ writedmem $end
$var wire 1 & selwb $end
$var wire 1 ' seldest $end
$var wire 1 ( regwrite $end
$var wire 1 ) readim $end
$var wire 1 * readdmem $end
$var wire 2 ; opcond [1:0] $end
$var wire 1 , ldpc $end
$var wire 1 - ldnpc $end
$var wire 1 . ldlmd $end
$var wire 1 / ldir $end
$var wire 1 0 ldimm $end
$var wire 1 1 ldaluout $end
$var wire 1 2 ldB $end
$var wire 1 3 ldA $end
$var wire 32 < irout [31:0] $end
$var wire 1 5 branch $end
$var wire 1 6 alusel2 $end
$var wire 1 7 alusel1 $end
$var wire 4 = alufunc [3:0] $end
$var wire 1 : aluen $end
$var parameter 3 > EX $end
$var parameter 3 ? HLT $end
$var parameter 3 @ ID $end
$var parameter 3 A IF $end
$var parameter 3 B MEM $end
$var parameter 3 C WB $end
$var reg 24 D control_signals [23:0] $end
$var reg 3 E state [2:0] $end
$upscope $end
$scope module dpath $end
$var wire 1 : aluen $end
$var wire 4 F alufunc [3:0] $end
$var wire 1 7 alusel1 $end
$var wire 1 6 alusel2 $end
$var wire 1 5 branch $end
$var wire 1 " clk $end
$var wire 1 3 ldA $end
$var wire 1 2 ldB $end
$var wire 1 1 ldaluout $end
$var wire 1 0 ldimm $end
$var wire 1 / ldir $end
$var wire 1 . ldlmd $end
$var wire 1 - ldnpc $end
$var wire 1 , ldpc $end
$var wire 2 G opcond [1:0] $end
$var wire 1 * readdmem $end
$var wire 1 ) readim $end
$var wire 1 ( regwrite $end
$var wire 1 # reset $end
$var wire 1 ' seldest $end
$var wire 1 & selwb $end
$var wire 1 $ writedmem $end
$var wire 32 H writedata [31:0] $end
$var wire 1 I selmem $end
$var wire 32 J result [31:0] $end
$var wire 32 K pcplus4 [31:0] $end
$var wire 32 L pcout [31:0] $end
$var wire 32 M pcnext [31:0] $end
$var wire 32 N pcbranch [31:0] $end
$var wire 32 O npcout [31:0] $end
$var wire 32 P memmuxout [31:0] $end
$var wire 32 Q lmdout [31:0] $end
$var wire 32 R irout [31:0] $end
$var wire 32 S instr [31:0] $end
$var wire 32 T immout [31:0] $end
$var wire 32 U imm [31:0] $end
$var wire 32 V dmemout [31:0] $end
$var wire 32 W destadd [31:0] $end
$var wire 32 X aluout [31:0] $end
$var wire 32 Y aluin2 [31:0] $end
$var wire 32 Z aluin1 [31:0] $end
$var wire 32 [ Bout [31:0] $end
$var wire 32 \ Bin [31:0] $end
$var wire 32 ] Aout [31:0] $end
$var wire 32 ^ Ain [31:0] $end
$scope module A $end
$var wire 1 " clk $end
$var wire 1 3 ld $end
$var wire 1 # reset $end
$var wire 32 _ din [31:0] $end
$var reg 32 ` dout [31:0] $end
$upscope $end
$scope module B $end
$var wire 1 " clk $end
$var wire 1 2 ld $end
$var wire 1 # reset $end
$var wire 32 a din [31:0] $end
$var reg 32 b dout [31:0] $end
$upscope $end
$scope module addpc $end
$var wire 32 c b [31:0] $end
$var wire 32 d out [31:0] $end
$var wire 32 e a [31:0] $end
$upscope $end
$scope module alu $end
$var wire 1 : en $end
$var wire 4 f mode [3:0] $end
$var wire 32 g out [31:0] $end
$var wire 32 h operand2 [31:0] $end
$var wire 32 i operand1 [31:0] $end
$var reg 32 j ALUout [31:0] $end
$upscope $end
$scope module aluoutreg $end
$var wire 1 " clk $end
$var wire 32 k din [31:0] $end
$var wire 1 1 ld $end
$var wire 1 # reset $end
$var reg 32 l dout [31:0] $end
$upscope $end
$scope module bradd $end
$var wire 32 m b [31:0] $end
$var wire 32 n out [31:0] $end
$var wire 32 o a [31:0] $end
$upscope $end
$scope module cond $end
$var wire 32 p a [31:0] $end
$var wire 2 q opcond [1:0] $end
$var wire 1 I y $end
$var wire 1 r lt $end
$var wire 1 s gt $end
$var wire 1 t eq $end
$scope module cmp $end
$var wire 32 u data1 [31:0] $end
$var wire 32 v data2 [31:0] $end
$var wire 1 r lt $end
$var wire 1 s gt $end
$var wire 1 t eq $end
$upscope $end
$upscope $end
$scope module destmux $end
$var wire 32 w a [31:0] $end
$var wire 32 x b [31:0] $end
$var wire 1 ' s $end
$var wire 32 y out [31:0] $end
$var parameter 32 z N $end
$upscope $end
$scope module dmem $end
$var wire 32 { addr [31:0] $end
$var wire 1 " clk $end
$var wire 32 | din [31:0] $end
$var wire 1 * read $end
$var wire 1 # reset $end
$var wire 1 $ write $end
$var wire 32 } dout [31:0] $end
$var integer 32 ~ k [31:0] $end
$upscope $end
$scope module ext $end
$var wire 16 !" a [15:0] $end
$var wire 32 "" y [31:0] $end
$upscope $end
$scope module imem $end
$var wire 6 #" addr [5:0] $end
$var wire 1 ) read $end
$var wire 32 $" I [31:0] $end
$upscope $end
$scope module immreg $end
$var wire 1 " clk $end
$var wire 32 %" din [31:0] $end
$var wire 1 0 ld $end
$var wire 1 # reset $end
$var reg 32 &" dout [31:0] $end
$upscope $end
$scope module irreg $end
$var wire 1 " clk $end
$var wire 32 '" din [31:0] $end
$var wire 1 / ld $end
$var wire 1 # reset $end
$var reg 32 (" dout [31:0] $end
$upscope $end
$scope module lmdreg $end
$var wire 1 " clk $end
$var wire 32 )" din [31:0] $end
$var wire 1 . ld $end
$var wire 1 # reset $end
$var reg 32 *" dout [31:0] $end
$upscope $end
$scope module memmux $end
$var wire 32 +" b [31:0] $end
$var wire 1 I s $end
$var wire 32 ," out [31:0] $end
$var wire 32 -" a [31:0] $end
$var parameter 32 ." N $end
$upscope $end
$scope module muxalu1 $end
$var wire 32 /" b [31:0] $end
$var wire 1 7 s $end
$var wire 32 0" out [31:0] $end
$var wire 32 1" a [31:0] $end
$var parameter 32 2" N $end
$upscope $end
$scope module muxalu2 $end
$var wire 32 3" a [31:0] $end
$var wire 32 4" b [31:0] $end
$var wire 1 6 s $end
$var wire 32 5" out [31:0] $end
$var parameter 32 6" N $end
$upscope $end
$scope module muxbr $end
$var wire 32 7" a [31:0] $end
$var wire 32 8" b [31:0] $end
$var wire 1 5 s $end
$var wire 32 9" out [31:0] $end
$var parameter 32 :" N $end
$upscope $end
$scope module npcreg $end
$var wire 1 " clk $end
$var wire 32 ;" din [31:0] $end
$var wire 1 - ld $end
$var wire 1 # reset $end
$var reg 32 <" dout [31:0] $end
$upscope $end
$scope module pcreg $end
$var wire 1 " clk $end
$var wire 32 =" din [31:0] $end
$var wire 1 , ld $end
$var wire 1 # reset $end
$var reg 32 >" dout [31:0] $end
$upscope $end
$scope module rbank $end
$var wire 1 " clk $end
$var wire 5 ?" dr [4:0] $end
$var wire 32 @" rData1 [31:0] $end
$var wire 32 A" rData2 [31:0] $end
$var wire 1 # reset $end
$var wire 5 B" sr1 [4:0] $end
$var wire 5 C" sr2 [4:0] $end
$var wire 1 ( write $end
$var wire 32 D" wrData [31:0] $end
$var integer 32 E" k [31:0] $end
$upscope $end
$scope module wbmux $end
$var wire 32 F" a [31:0] $end
$var wire 32 G" b [31:0] $end
$var wire 1 & s $end
$var wire 32 H" out [31:0] $end
$var parameter 32 I" N $end
$upscope $end
$upscope $end
$upscope $end
$upscope $end
$enddefinitions $end
$comment Show the parameter values. $end
$dumpall
b100000 I"
b100000 :"
b100000 6"
b100000 2"
b100000 ."
b100000 z
b100 C
b11 B
b0 A
b1 @
b101 ?
b10 >
$end
#0
$dumpvars
bx H"
bx G"
bx F"
bx E"
bx D"
bx C"
bx B"
bx A"
bx @"
bx ?"
bx >"
bx ="
bx <"
bx ;"
bx 9"
bx 8"
bx 7"
bx 5"
bx 4"
bx 3"
bx 1"
bx 0"
bx /"
bx -"
bx ,"
bx +"
bx *"
bx )"
bx ("
bx '"
bx &"
bx %"
bx $"
bx #"
bx ""
bx !"
bx ~
bx }
bx |
bx {
b0xxxxx y
b0xxxxx x
b0xxxxx w
b0 v
bx u
xt
xs
xr
bx q
bx p
bx o
bx n
bx00 m
bx l
bx k
bx j
bx i
bx h
bx g
bx f
bx e
bx d
b100 c
bx b
bx a
bx `
bx _
bx ^
bx ]
bx \
bx [
bx Z
bx Y
bx X
b0xxxxx W
bx V
bx U
bx T
bx S
bx R
bx Q
bx P
bx O
bx N
bx M
bx L
bx K
bx J
xI
bx H
bx G
bx F
bx E
bx D
bx =
bx <
bx ;
x:
bx 9
bx 8
x7
x6
x5
bx 4
x3
x2
x1
x0
x/
x.
x-
x,
bx +
x*
x)
x(
x'
x&
bx %
x$
1#
0"
bx !
$end
#5
0I
b0 ?"
b0 W
b0 y
b0 M
b0 9"
b0 ="
0)
0/
0-
03
02
00
b0 +
b0 ;
b0 G
b0 q
07
06
0:
01
b0 9
b0 =
b0 F
b0 f
0'
0(
0$
0*
0.
0&
05
0,
b0 #"
b0 \
b0 a
b0 A"
b0 C"
b0 ^
b0 _
b0 @"
b0 B"
b0 x
b0 w
b0 N
b0 n
b0 8"
b0 m
b0 Z
b0 i
b0 0"
b0 Y
b0 h
b0 5"
b0 P
b0 ,"
b0 7"
b0 !
b0 %
b0 H
b0 D"
b0 H"
b0 D
b100 K
b100 d
b100 ;"
b0 L
b0 e
b0 >"
b0 4
b0 <
b0 R
b0 ("
b0 O
b0 o
b0 -"
b0 1"
b0 <"
0r
0s
1t
b0 ]
b0 `
b0 p
b0 u
b0 /"
b0 [
b0 b
b0 |
b0 3"
b0 T
b0 &"
b0 4"
b0 8
b0 X
b0 l
b0 {
b0 +"
b0 G"
b0 Q
b0 *"
b0 F"
b100000 E"
b10000000000 ~
1"
#10
0"
#15
b0 E
1"
0#
#20
0"
#25
1"
#26
b100 U
b100 ""
b100 %"
b100 !"
b1000000000000010000000000000100 S
b1000000000000010000000000000100 $"
b1000000000000010000000000000100 '"
1)
1/
1-
b1 E
b111000000000000000000000 D
#30
0"
#35
b100 M
b100 9"
b100 ="
b100 Z
b100 i
b100 0"
b100 P
b100 ,"
b100 7"
b1 C"
b1 x
b1000000000000010000 m
b1000000000000010100 N
b1000000000000010100 n
b1000000000000010100 8"
b100 O
b100 o
b100 -"
b100 1"
b100 <"
b1000000000000010000000000000100 4
b1000000000000010000000000000100 <
b1000000000000010000000000000100 R
b1000000000000010000000000000100 ("
1"
#36
13
12
10
b10 E
b111111000000000000000000 D
#40
0"
#45
b100 T
b100 &"
b100 4"
1"
#46
b0 Z
b0 i
b0 0"
b100 Y
b100 h
b100 5"
b100 J
b100 g
b100 k
b100 j
17
16
1:
b11 +
b11 ;
b11 G
b11 q
b111111111110000000000000 D
#48
11
b11 E
b111111111111000000000000 D
#50
0"
#55
b100 8
b100 X
b100 l
b100 {
b100 +"
b100 G"
1"
#56
1,
b100 E
b111111111111000000000001 D
#60
0"
#65
b1010 U
b1010 ""
b1010 %"
b1010 !"
b1000000000000100000000000001010 S
b1000000000000100000000000001010 $"
b1000000000000100000000000001010 '"
b1 #"
b1000 K
b1000 d
b1000 ;"
b100 L
b100 e
b100 >"
1"
#66
b1 ?"
b1 W
b1 y
b100 !
b100 %
b100 H
b100 D"
b100 H"
1'
1(
1&
b0 E
b111111111111000011000101 D
#70
0"
#75
b10 ?"
b1010 J
b1010 g
b1010 k
b1010 j
b1000 M
b1000 9"
b1000 ="
b10 W
b10 y
b1010 Y
b1010 h
b1010 5"
b1000 P
b1000 ,"
b1000 7"
b10 C"
b10 x
b10000000000000101000 m
b1010 T
b1010 &"
b1010 4"
b0 \
b0 a
b0 A"
b10000000000000110000 N
b10000000000000110000 n
b10000000000000110000 8"
b1000 O
b1000 o
b1000 -"
b1000 1"
b1000 <"
b1000000000000100000000000001010 4
b1000000000000100000000000001010 <
b1000000000000100000000000001010 R
b1000000000000100000000000001010 ("
1"
#76
b0 ?"
b1000 Z
b1000 i
b1000 0"
b0 Y
b0 h
b0 5"
b0 W
b0 y
b0 !
b0 %
b0 H
b0 D"
b0 H"
03
02
00
b0 +
b0 ;
b0 G
b0 q
07
06
0:
01
0'
0(
0&
0,
b1 E
b111000000000000000000000 D
#80
0"
#85
1"
#86
13
12
10
b10 E
b111111000000000000000000 D
#90
0"
#95
1"
#96
b0 Z
b0 i
b0 0"
b1010 Y
b1010 h
b1010 5"
b1010 J
b1010 g
b1010 k
b1010 j
17
16
1:
b11 +
b11 ;
b11 G
b11 q
b111111111110000000000000 D
#98
11
b11 E
b111111111111000000000000 D
#100
0"
#105
b1010 8
b1010 X
b1010 l
b1010 {
b1010 +"
b1010 G"
1"
#106
1,
b100 E
b111111111111000000000001 D
#110
0"
#115
b1100000000001 U
b1100000000001 ""
b1100000000001 %"
b1100000000001 !"
b10000010001100000000001 S
b10000010001100000000001 $"
b10000010001100000000001 '"
b10 #"
b1100 K
b1100 d
b1100 ;"
b1000 L
b1000 e
b1000 >"
1"
#116
b10 ?"
b10 W
b10 y
b1010 !
b1010 %
b1010 H
b1010 D"
b1010 H"
1'
1(
1&
b0 E
b111111111111000011000101 D
#120
0"
#125
b1 ?"
b1 W
b1 y
b1100 M
b1100 9"
b1100 ="
b1100000000001 J
b1100000000001 g
b1100000000001 k
b1100000000001 j
b1 C"
b1010 ^
b1010 _
b1010 @"
b10 B"
b1 x
b11 w
b1000001000110000000000100 m
b1100 P
b1100 ,"
b1100 7"
b1100000000001 Y
b1100000000001 h
b1100000000001 5"
b10000010001100000000001 4
b10000010001100000000001 <
b10000010001100000000001 R
b10000010001100000000001 ("
b1000001000110000000010000 N
b1000001000110000000010000 n
b1000001000110000000010000 8"
b1100 O
b1100 o
b1100 -"
b1100 1"
b1100 <"
b100 \
b100 a
b100 A"
b1100000000001 T
b1100000000001 &"
b1100000000001 4"
1"
#126
b11 ?"
b1100 Z
b1100 i
b1100 0"
b0 Y
b0 h
b0 5"
b11 W
b11 y
b0 !
b0 %
b0 H
b0 D"
b0 H"
03
02
00
b0 +
b0 ;
b0 G
b0 q
07
06
0:
01
0'
0(
0&
0,
b1 E
b111000000000000000000000 D
#130
0"
#135
1"
#136
13
12
10
b10 E
b111111000000000000000000 D
#140
0"
#145
b1010 M
b1010 9"
b1010 ="
b1010 P
b1010 ,"
b1010 7"
1I
b100 Y
b100 h
b100 5"
1s
0t
b1010 ]
b1010 `
b1010 p
b1010 u
b1010 /"
b100 [
b100 b
b100 |
b100 3"
1"
#146
b1100 M
b1100 9"
b1100 ="
b1100 P
b1100 ,"
b1100 7"
0I
b1010 Z
b1010 i
b1010 0"
b1110 J
b1110 g
b1110 k
b1110 j
17
1:
b11 +
b11 ;
b11 G
b11 q
b111111111010000000000000 D
#148
11
b11 E
b111111111011000000000000 D
#150
0"
#155
b1110 8
b1110 X
b1110 l
b1110 {
b1110 +"
b1110 G"
1"
#156
1,
b100 E
b111111111011000000000001 D
#160
0"
#165
b10000000000010 U
b10000000000010 ""
b10000000000010 %"
b10000000000010 !"
b10000010010000000000010 S
b10000010010000000000010 $"
b10000010010000000000010 '"
b11 #"
b10000 K
b10000 d
b10000 ;"
b1100 L
b1100 e
b1100 >"
1"
#166
b1110 !
b1110 %
b1110 H
b1110 D"
b1110 H"
1(
1&
b0 E
b111111111011000001000101 D
#170
0"
#175
b100 ?"
b10000 M
b10000 9"
b10000 ="
b100 W
b100 y
b10000 P
b10000 ,"
b10000 7"
b100 w
b1000001001000000000001000 m
b10000000000010 T
b10000000000010 &"
b10000000000010 4"
b1000001001000000000011000 N
b1000001001000000000011000 n
b1000001001000000000011000 8"
b10000 O
b10000 o
b10000 -"
b10000 1"
b10000 <"
b10000010010000000000010 4
b10000010010000000000010 <
b10000010010000000000010 R
b10000010010000000000010 ("
1"
#176
b1110 M
b1110 9"
b1110 ="
b1110 P
b1110 ,"
b1110 7"
1I
b10000 Z
b10000 i
b10000 0"
b0 !
b0 %
b0 H
b0 D"
b0 H"
03
02
00
b0 +
b0 ;
b0 G
b0 q
07
0:
01
0(
0&
0,
b1 E
b111000000000000000000000 D
#180
0"
#185
1"
#186
13
12
10
b10 E
b111111000000000000000000 D
#190
0"
#195
1"
#196
b10000 M
b10000 9"
b10000 ="
b10000 P
b10000 ,"
b10000 7"
0I
b1010 Z
b1010 i
b1010 0"
b110 J
b110 g
b110 k
b110 j
b1 9
b1 =
b1 F
b1 f
17
1:
b11 +
b11 ;
b11 G
b11 q
b111111111010000100000000 D
#198
11
b11 E
b111111111011000100000000 D
#200
0"
#205
b110 8
b110 X
b110 l
b110 {
b110 +"
b110 G"
1"
#206
1,
b100 E
b111111111011000100000001 D
#210
0"
#215
b10100000000001 U
b10100000000001 ""
b10100000000001 %"
b10100000000001 !"
b10000010010100000000001 S
b10000010010100000000001 $"
b10000010010100000000001 '"
b100 #"
b10100 K
b10100 d
b10100 ;"
b10000 L
b10000 e
b10000 >"
1"
#216
b110 !
b110 %
b110 H
b110 D"
b110 H"
1(
1&
b0 E
b111111111011000101000101 D
#220
0"
#225
b101 ?"
b101 W
b101 y
b10100 M
b10100 9"
b10100 ="
b101 w
b1000001001010000000000100 m
b10100 P
b10100 ,"
b10100 7"
b10000010010100000000001 4
b10000010010100000000001 <
b10000010010100000000001 R
b10000010010100000000001 ("
b1000001001010000000011000 N
b1000001001010000000011000 n
b1000001001010000000011000 8"
b10100 O
b10100 o
b10100 -"
b10100 1"
b10100 <"
b10100000000001 T
b10100000000001 &"
b10100000000001 4"
1"
#226
b110 M
b110 9"
b110 ="
b110 P
b110 ,"
b110 7"
1I
b10100 Z
b10100 i
b10100 0"
b0 !
b0 %
b0 H
b0 D"
b0 H"
03
02
00
b0 +
b0 ;
b0 G
b0 q
07
0:
01
b0 9
b0 =
b0 F
b0 f
0(
0&
0,
b1 E
b111000000000000000000000 D
#230
0"
#235
1"
#236
13
12
10
b10 E
b111111000000000000000000 D
#240
0"
#245
1"
#246
b10100 M
b10100 9"
b10100 ="
b10100 P
b10100 ,"
b10100 7"
0I
b1010 Z
b1010 i
b1010 0"
b1110 J
b1110 g
b1110 k
b1110 j
17
1:
b11 +
b11 ;
b11 G
b11 q
b111111111010000000000000 D
#248
11
b11 E
b111111111011000000000000 D
#250
0"
#255
b1110 8
b1110 X
b1110 l
b1110 {
b1110 +"
b1110 G"
1"
#256
1,
b100 E
b111111111011000000000001 D
#260
0"
#265
b11110 U
b11110 ""
b11110 %"
b11110 !"
b1000000011000110000000000011110 S
b1000000011000110000000000011110 $"
b1000000011000110000000000011110 '"
b101 #"
b11000 K
b11000 d
b11000 ;"
b10100 L
b10100 e
b10100 >"
1"
#266
b1110 !
b1110 %
b1110 H
b1110 D"
b1110 H"
1(
1&
b0 E
b111111111011000001000101 D
#270
0"
#275
b0 ?"
b11000 M
b11000 9"
b11000 ="
b0 W
b0 y
b11000 P
b11000 ,"
b11000 7"
b1110 \
b1110 a
b1110 A"
b11 C"
b1110 ^
b1110 _
b1110 @"
b11 B"
b11 x
b0 w
b1100011000000000001111000 m
b11110 T
b11110 &"
b11110 4"
b1100011000000000010010000 N
b1100011000000000010010000 n
b1100011000000000010010000 8"
b11000 O
b11000 o
b11000 -"
b11000 1"
b11000 <"
b1000000011000110000000000011110 4
b1000000011000110000000000011110 <
b1000000011000110000000000011110 R
b1000000011000110000000000011110 ("
1"
#276
b1110 M
b1110 9"
b1110 ="
b1110 P
b1110 ,"
b1110 7"
1I
b11000 Z
b11000 i
b11000 0"
b0 !
b0 %
b0 H
b0 D"
b0 H"
03
02
00
b0 +
b0 ;
b0 G
b0 q
07
0:
01
0(
0&
0,
b1 E
b111000000000000000000000 D
#280
0"
#285
1"
#286
13
12
10
b10 E
b111111000000000000000000 D
#290
0"
#295
b1110 Y
b1110 h
b1110 5"
b1110 [
b1110 b
b1110 |
b1110 3"
b1110 ]
b1110 `
b1110 p
b1110 u
b1110 /"
1"
#296
b11000 M
b11000 9"
b11000 ="
b11000 P
b11000 ,"
b11000 7"
0I
b1110 Z
b1110 i
b1110 0"
b11110 Y
b11110 h
b11110 5"
b101100 J
b101100 g
b101100 k
b101100 j
17
16
1:
b11 +
b11 ;
b11 G
b11 q
b111111111110000000000000 D
#298
11
b11 E
b111111111111000000000000 D
#300
0"
#305
b101100 8
b101100 X
b101100 l
b101100 {
b101100 +"
b101100 G"
1"
#306
1,
b100 E
b111111111111000000000001 D
#310
0"
#315
b11 U
b11 ""
b11 %"
b11 !"
b1011000010000010000000000000011 S
b1011000010000010000000000000011 $"
b1011000010000010000000000000011 '"
b110 #"
b11100 K
b11100 d
b11100 ;"
b11000 L
b11000 e
b11000 >"
1"
#316
b11 ?"
b11 W
b11 y
b101100 !
b101100 %
b101100 H
b101100 D"
b101100 H"
1'
1(
1&
b0 E
b111111111111000011000101 D
#320
0"
#325
b1 ?"
b1 W
b1 y
b11100 M
b11100 9"
b11100 ="
b10001 J
b10001 g
b10001 k
b10001 j
b1 C"
b10 B"
b1 x
b1000001000000000000001100 m
b11100 P
b11100 ,"
b11100 7"
b11 Y
b11 h
b11 5"
b1011000010000010000000000000011 4
b1011000010000010000000000000011 <
b1011000010000010000000000000011 R
b1011000010000010000000000000011 ("
b1000001000000000000101000 N
b1000001000000000000101000 n
b1000001000000000000101000 8"
b11100 O
b11100 o
b11100 -"
b11100 1"
b11100 <"
b1010 ^
b1010 _
b1010 @"
b100 \
b100 a
b100 A"
b11 T
b11 &"
b11 4"
1"
#326
b101100 M
b101100 9"
b101100 ="
b101100 P
b101100 ,"
b101100 7"
1I
b0 ?"
b11100 Z
b11100 i
b11100 0"
b1110 Y
b1110 h
b1110 5"
b0 W
b0 y
b0 !
b0 %
b0 H
b0 D"
b0 H"
03
02
00
b0 +
b0 ;
b0 G
b0 q
07
06
0:
01
0'
0(
0&
0,
b1 E
b111000000000000000000000 D
#330
0"
#335
1"
#336
13
12
10
b10 E
b111111000000000000000000 D
#340
0"
#345
b100 Y
b100 h
b100 5"
b1010 ]
b1010 `
b1010 p
b1010 u
b1010 /"
b100 [
b100 b
b100 |
b100 3"
1"
#346
b11100 M
b11100 9"
b11100 ="
b11100 P
b11100 ,"
b11100 7"
0I
b1010 Z
b1010 i
b1010 0"
b11 Y
b11 h
b11 5"
b1010000 J
b1010000 g
b1010000 k
b1010000 j
b110 9
b110 =
b110 F
b110 f
17
16
1:
b11 +
b11 ;
b11 G
b11 q
b111111111110011000000000 D
#348
11
b11 E
b111111111111011000000000 D
#350
0"
#355
b1010000 8
b1010000 X
b1010000 l
b1010000 {
b1010000 +"
b1010000 G"
1"
#356
1,
b100 E
b111111111111011000000001 D
#360
0"
#365
b10 U
b10 ""
b10 %"
b10 !"
b1100000011000100000000000000010 S
b1100000011000100000000000000010 $"
b1100000011000100000000000000010 '"
b111 #"
b100000 K
b100000 d
b100000 ;"
b11100 L
b11100 e
b11100 >"
1"
#366
b1 ?"
b1 W
b1 y
b1010000 !
b1010000 %
b1010000 H
b1010000 D"
b1010000 H"
1'
1(
1&
b0 E
b111111111111011011000101 D
#370
0"
#375
b10 ?"
b101000 J
b101000 g
b101000 k
b101000 j
b100000 M
b100000 9"
b100000 ="
b10 W
b10 y
b10 Y
b10 h
b10 5"
b100000 P
b100000 ,"
b100000 7"
b10 C"
b101100 ^
b101100 _
b101100 @"
b11 B"
b10 x
b1100010000000000000001000 m
b10 T
b10 &"
b10 4"
b1010 \
b1010 a
b1010 A"
b1100010000000000000101000 N
b1100010000000000000101000 n
b1100010000000000000101000 8"
b100000 O
b100000 o
b100000 -"
b100000 1"
b100000 <"
b1100000011000100000000000000010 4
b1100000011000100000000000000010 <
b1100000011000100000000000000010 R
b1100000011000100000000000000010 ("
1"
#376
b1010000 M
b1010000 9"
b1010000 ="
b1010000 P
b1010000 ,"
b1010000 7"
1I
b0 ?"
b100000 Z
b100000 i
b100000 0"
b100 Y
b100 h
b100 5"
b0 W
b0 y
b0 !
b0 %
b0 H
b0 D"
b0 H"
03
02
00
b0 +
b0 ;
b0 G
b0 q
07
06
0:
01
b0 9
b0 =
b0 F
b0 f
0'
0(
0&
0,
b1 E
b111000000000000000000000 D
#380
0"
#385
1"
#386
13
12
10
b10 E
b111111000000000000000000 D
#390
0"
#395
b1010 Y
b1010 h
b1010 5"
b1010 [
b1010 b
b1010 |
b1010 3"
b101100 ]
b101100 `
b101100 p
b101100 u
b101100 /"
1"
#396
b100000 M
b100000 9"
b100000 ="
b100000 P
b100000 ,"
b100000 7"
0I
b101100 Z
b101100 i
b101100 0"
b10 Y
b10 h
b10 5"
b1011 J
b1011 g
b1011 k
b1011 j
b1000 9
b1000 =
b1000 F
b1000 f
17
16
1:
b11 +
b11 ;
b11 G
b11 q
b111111111110100000000000 D
#398
11
b11 E
b111111111111100000000000 D
#400
0"
#405
b1011 8
b1011 X
b1011 l
b1011 {
b1011 +"
b1011 G"
1"
#406
1,
b100 E
b111111111111100000000001 D
#410
0"
#415
b1 U
b1 ""
b1 %"
b1 !"
b10001000100000010000000000000001 S
b10001000100000010000000000000001 $"
b10001000100000010000000000000001 '"
b1000 #"
b100100 K
b100100 d
b100100 ;"
b100000 L
b100000 e
b100000 >"
1"
#416
b10 ?"
b10 W
b10 y
b1011 !
b1011 %
b1011 H
b1011 D"
b1011 H"
1'
1(
1&
b0 E
b111111111111100011000101 D
#420
0"
#425
b1 ?"
b1 W
b1 y
b100100 M
b100100 9"
b100100 ="
b10110 J
b10110 g
b10110 k
b10110 j
b1 C"
b110 ^
b110 _
b110 @"
b100 B"
b1 x
b10000001000000000000000100 m
b100100 P
b100100 ,"
b100100 7"
b1 Y
b1 h
b1 5"
b10001000100000010000000000000001 4
b10001000100000010000000000000001 <
b10001000100000010000000000000001 R
b10001000100000010000000000000001 ("
b10000001000000000000101000 N
b10000001000000000000101000 n
b10000001000000000000101000 8"
b100100 O
b100100 o
b100100 -"
b100100 1"
b100100 <"
b1010000 \
b1010000 a
b1010000 A"
b1 T
b1 &"
b1 4"
1"
#426
b1011 M
b1011 9"
b1011 ="
b1011 P
b1011 ,"
b1011 7"
1I
b0 ?"
b100100 Z
b100100 i
b100100 0"
b1010 Y
b1010 h
b1010 5"
b0 W
b0 y
b0 !
b0 %
b0 H
b0 D"
b0 H"
03
02
00
b0 +
b0 ;
b0 G
b0 q
07
06
0:
01
b0 9
b0 =
b0 F
b0 f
0'
0(
0&
0,
b1 E
b111000000000000000000000 D
#430
0"
#435
1"
#436
13
12
10
b10 E
b111111000000000000000000 D
#440
0"
#445
b1010000 Y
b1010000 h
b1010000 5"
b110 ]
b110 `
b110 p
b110 u
b110 /"
b1010000 [
b1010000 b
b1010000 |
b1010000 3"
1"
#446
b100100 M
b100100 9"
b100100 ="
b100100 P
b100100 ,"
b100100 7"
0I
b110 Z
b110 i
b110 0"
b1 Y
b1 h
b1 5"
b111 J
b111 g
b111 k
b111 j
17
16
1:
b11 +
b11 ;
b11 G
b11 q
b111111111110000000000000 D
#448
11
b11 E
b111111111111000000000000 D
#450
0"
#455
b111 8
b111 X
b111 l
b111 {
b111 +"
b111 G"
1"
#456
1,
1$
b100 E
b111111111111000000100001 D
#460
0"
#465
b10000100100000110000000000000001 S
b10000100100000110000000000000001 $"
b10000100100000110000000000000001 '"
b1001 #"
b101000 K
b101000 d
b101000 ;"
b100100 L
b100100 e
b100100 >"
1"
#466
b111 !
b111 %
b111 H
b111 D"
b111 H"
1&
b0 E
b111111111111000000100101 D
#470
0"
#475
b101000 M
b101000 9"
b101000 ="
b101000 P
b101000 ,"
b101000 7"
b101100 \
b101100 a
b101100 A"
b11 C"
b11 x
b10000011000000000000000100 m
b10000011000000000000101100 N
b10000011000000000000101100 n
b10000011000000000000101100 8"
b101000 O
b101000 o
b101000 -"
b101000 1"
b101000 <"
b10000100100000110000000000000001 4
b10000100100000110000000000000001 <
b10000100100000110000000000000001 R
b10000100100000110000000000000001 ("
1"
#476
b111 M
b111 9"
b111 ="
b111 P
b111 ,"
b111 7"
1I
b101000 Z
b101000 i
b101000 0"
b1010000 Y
b1010000 h
b1010000 5"
b0 !
b0 %
b0 H
b0 D"
b0 H"
03
02
00
b0 +
b0 ;
b0 G
b0 q
07
06
0:
01
0$
0&
0,
b1 E
b111000000000000000000000 D
#480
0"
#485
1"
#486
13
12
10
b10 E
b111111000000000000000000 D
#490
0"
#495
b101100 Y
b101100 h
b101100 5"
b101100 [
b101100 b
b101100 |
b101100 3"
1"
#496
b101000 M
b101000 9"
b101000 ="
b101000 P
b101000 ,"
b101000 7"
0I
b110 Z
b110 i
b110 0"
b1 Y
b1 h
b1 5"
b111 J
b111 g
b111 k
b111 j
17
16
1:
b11 +
b11 ;
b11 G
b11 q
b111111111110000000000000 D
#498
11
b11 E
b111111111111000000000000 D
#500
0"
#505
1"
#506
b1010000 V
b1010000 }
b1010000 )"
1,
1*
1.
b100 E
b111111111111000000011001 D
#510
0"
